codeA3/generated/SystemTop.vcd
$date
2024-11-27T13:23+0000
$end
$version
0.2
$end
$comment

$end
$timescale 1ns  $end
$scope module SystemTop $end
 $var wire 32 # io_testerDataMemDataRead $end
 $var wire 1 2 io_testerDataMemWriteEnable $end
 $var wire 32 Z io_testerDataMemDataWrite $end
 $var wire 1 \ io_start $end
 $var wire 1 g io_testerDataMemEnable $end
 $var wire 1 } clock $end
 $var wire 16 ", io_testerDataMemAddress $end
 $var wire 1 "- dataMemory $end
 $var wire 1 "0 accelerator $end
 $var wire 1 "4 io_done $end
 $var wire 1 "U reset $end
  $scope module dataMemory $end
   $var wire 32 ! _GEN_11 $end
   $var wire 32 ' io_testerDataWrite $end
   $var wire 1 0 clock $end
   $var wire 1 4 io_testerEnable $end
   $var wire 32 E io_dataRead $end
   $var wire 32 F io_dataWrite $end
   $var wire 1 c io_testerWriteEnable $end
   $var wire 32 e _GEN_5 $end
   $var wire 16 y io_address $end
   $var wire 1 | io_writeEnable $end
   $var wire 16 "3 io_testerAddress $end
   $var wire 32 "8 memory $end
   $var wire 32 "F io_testerDataRead $end
    $scope module memory $end
      $scope module _T_1 $end
       $var wire 16 % addr $end
       $var wire 16 . pipeline_addr_0 $end
       $var wire 1 6 en $end
       $var wire 32 V data $end
       $var wire 32 s pipeline_data_0 $end
       $var wire 1 "1 pipeline_valid_0 $end
       $var wire 1 "; valid $end
       $var wire 1 "H mask $end
       $var wire 1 "X clk $end
      $upscope $end
      $scope module _T $end
       $var wire 1 * clk $end
       $var wire 16 x addr $end
       $var wire 1 { en $end
       $var wire 32 "P data $end
      $upscope $end
      $scope module _T_3 $end
       $var wire 1 5 pipeline_valid_0 $end
       $var wire 1 9 en $end
       $var wire 1 : mask $end
       $var wire 16 > pipeline_addr_0 $end
       $var wire 16 ^ addr $end
       $var wire 1 v clk $end
       $var wire 32 ". pipeline_data_0 $end
       $var wire 32 ": data $end
       $var wire 1 "b valid $end
      $upscope $end
      $scope module _T_2 $end
       $var wire 1 @ clk $end
       $var wire 16 G addr $end
       $var wire 32 o data $end
       $var wire 1 "' en $end
      $upscope $end
    $upscope $end
  $upscope $end
  $scope module accelerator $end
   $var wire 4 " _GEN_2 $end
   $var wire 16 $ _GEN_13 $end
   $var wire 32 & _GEN_96 $end
   $var wire 32 ( _GEN_28 $end
   $var wire 4 ) _GEN_34 $end
   $var wire 32 + _GEN_90 $end
   $var wire 16 , _GEN_5 $end
   $var wire 4 - _GEN_78 $end
   $var wire 37 / _GEN_99 $end
   $var wire 16 1 _GEN_16 $end
   $var wire 32 3 _GEN_84 $end
   $var wire 32 7 _GEN_72 $end
   $var wire 32 8 _GEN_66 $end
   $var wire 16 ; _GEN_87 $end
   $var wire 32 < _GEN_8 $end
   $var wire 32 = _GEN_51 $end
   $var wire 32 ? _GEN_81 $end
   $var wire 32 A _GEN_75 $end
   $var wire 16 B _GEN_48 $end
   $var wire 16 C _GEN_54 $end
   $var wire 16 D _GEN_33 $end
   $var wire 32 H _GEN_69 $end
   $var wire 32 I _GEN_60 $end
   $var wire 16 J reg2 $end
   $var wire 4 K _GEN_57 $end
   $var wire 37 L _GEN_15 $end
   $var wire 32 M _GEN_42 $end
   $var wire 37 N _GEN_36 $end
   $var wire 32 O _GEN_63 $end
   $var wire 32 P _GEN_21 $end
   $var wire 1 Q reset $end
   $var wire 1 R _GEN_24 $end
   $var wire 32 S _GEN_30 $end
   $var wire 32 T _GEN_7 $end
   $var wire 32 U _GEN_92 $end
   $var wire 32 W _GEN_18 $end
   $var wire 32 X _GEN_45 $end
   $var wire 32 Y _GEN_39 $end
   $var wire 37 [ _GEN_103 $end
   $var wire 32 ] _GEN_74 $end
   $var wire 4 _ _GEN_27 $end
   $var wire 32 ` _GEN_95 $end
   $var wire 37 a _GEN_80 $end
   $var wire 32 b _GEN_89 $end
   $var wire 32 d _GEN_12 $end
   $var wire 16 f _GEN_1 $end
   $var wire 32 h _GEN_77 $end
   $var wire 4 i _GEN_4 $end
   $var wire 16 j _GEN_83 $end
   $var wire 4 k _T $end
   $var wire 32 l _GEN_62 $end
   $var wire 16 m _GEN_98 $end
   $var wire 32 n _GEN_56 $end
   $var wire 32 p _GEN_38 $end
   $var wire 32 q _GEN_50 $end
   $var wire 32 r _GEN_86 $end
   $var wire 37 t _GEN_44 $end
   $var wire 16 u _GEN_59 $end
   $var wire 16 w _GEN_71 $end
   $var wire 16 z _GEN_65 $end
   $var wire 32 ~ _GEN_32 $end
   $var wire 32 "! _GEN_53 $end
   $var wire 1 "" _GEN_47 $end
   $var wire 1 "# io_done $end
   $var wire 4 "$ _GEN_11 $end
   $var wire 37 "% _GEN_68 $end
   $var wire 16 "& _GEN_26 $end
   $var wire 1 "( io_writeEnable $end
   $var wire 1 ") _GEN_35 $end
   $var wire 16 "* reg1 $end
   $var wire 32 "+ _GEN_41 $end
   $var wire 32 "/ _GEN_29 $end
   $var wire 32 "2 _GEN_20 $end
   $var wire 4 "5 _GEN_17 $end
   $var wire 32 "6 io_dataWrite $end
   $var wire 32 "7 _GEN_85 $end
   $var wire 37 "9 _GEN_91 $end
   $var wire 32 "< _GEN_6 $end
   $var wire 16 "= _GEN_23 $end
   $var wire 4 "> _GEN_0 $end
   $var wire 16 "? io_address $end
   $var wire 1 "@ clock $end
   $var wire 37 "A _GEN_9 $end
   $var wire 4 "B _GEN_88 $end
   $var wire 1 "C io_start $end
   $var wire 32 "D io_dataRead $end
   $var wire 32 "E _GEN_73 $end
   $var wire 4 "G _GEN_67 $end
   $var wire 16 "I _GEN_94 $end
   $var wire 32 "J _GEN_61 $end
   $var wire 32 "K _GEN_49 $end
   $var wire 1 "L _GEN_82 $end
   $var wire 32 "M _GEN_40 $end
   $var wire 32 "N _GEN_97 $end
   $var wire 37 "O _GEN_55 $end
   $var wire 32 "Q _GEN_3 $end
   $var wire 16 "R _GEN_76 $end
   $var wire 32 "S _GEN_79 $end
   $var wire 1 "T _GEN_70 $end
   $var wire 16 "V _GEN_37 $end
   $var wire 16 "W _GEN_43 $end
   $var wire 1 "Y _GEN_58 $end
   $var wire 32 "Z _GEN_22 $end
   $var wire 32 "[ _GEN_64 $end
   $var wire 32 "\ _GEN_31 $end
   $var wire 4 "] _GEN_46 $end
   $var wire 32 "^ _GEN_52 $end
   $var wire 32 "_ _GEN_10 $end
   $var wire 32 "` _GEN_19 $end
   $var wire 37 "a _GEN_25 $end
  $upscope $end
$upscope $end
$enddefinitions $end
$dumpvars
b00000000000000000000000000000000 n
b00000000000000000000000000000000 Y
0"L
0""
b00000000000000000000000000000000 <
b00000000000000000000000000000000 '
0R
b0000000000000000 B
0"1
b00000000000000000000000000000000 r
b00000000000000000000000000000000 "M
b00000000000000000000000000000000 "8
b0000000000000000 "?
b0000000000000000 "*
b0000000000000000 x
b00000000000000000000000000000000 l
b00000000000000000000000000000000 "2
b00000000000000000000000000000000 O
b0000000000000000 >
b0000 "B
b0000000000000000000000000000000000000 "O
b0000000000000000 "&
b00000000000000000000000000000000 "`
0g
b00000000000000000000000000000000 h
b0000 K
b00000000000000000000000000000000 `
b00000000000000000000000000000000 ".
05
b0000000000000000 %
0")
b0000000000000000 f
b00000000000000000000000000000000 b
b0000 "]
0"@
b0000000000000000000000000000000000000 L
b00000000000000000000000000000000 E
0"#
b00000000000000000000000000000000 "\
b00000000000000000000000000000000 s
0@
b00000000000000000000000000000000 A
b0000000000000000000000000000000000000 "A
0v
0"U
b0000000000000000000000000000000000000 a
b00000000000000000000000000000000 Z
b0000000000000000000000000000000000000 /
b00000000000000000000000000000000 (
b0000000000000000 u
b00000000000000000000000000000000 q
b0000000000000000000000000000000000000 [
b0000000000000000 C
b0000000000000000 .
b0000 "
b00000000000000000000000000000000 T
06
b00000000000000000000000000000000 ?
b0000000000000000 w
b0000 k
b00000000000000000000000000000000 "N
b00000000000000000000000000000000 V
0"4
b00000000000000000000000000000000 e
b00000000000000000000000000000000 P
0"C
b00000000000000000000000000000000 3
0{
0Q
04
0"(
b0000 i
b00000000000000000000000000000000 "D
b00000000000000000000000000000000 "/
b0000000000000000000000000000000000000 "a
b0000000000000000 J
00
b0000 "$
b00000000000000000000000000000000 "+
b0000 _
b0000 -
b0000000000000000 1
b0000 "5
b0000000000000000 z
0"T
b00000000000000000000000000000000 "<
b0000000000000000000000000000000000000 "%
b00000000000000000000000000000000 "S
b00000000000000000000000000000000 p
b00000000000000000000000000000000 "6
b00000000000000000000000000000000 S
b00000000000000000000000000000000 "!
b0000 )
b00000000000000000000000000000000 !
b00000000000000000000000000000000 U
b0000000000000000 D
b00000000000000000000000000000000 8
b00000000000000000000000000000000 #
b00000000000000000000000000000000 ":
b0000000000000000 "V
b0000000000000000 ",
09
0"-
b00000000000000000000000000000000 "Q
b00000000000000000000000000000000 I
0"'
0|
b00000000000000000000000000000000 "K
b0000000000000000 "R
b0000000000000000 "=
b0000 ">
b00000000000000000000000000000000 "E
b00000000000000000000000000000000 M
0c
b00000000000000000000000000000000 d
b0000000000000000000000000000000000000 N
b00000000000000000000000000000000 "^
b0000000000000000 j
0"Y
b0000000000000000 "3
b0000000000000000 y
b0000000000000000 G
b00000000000000000000000000000000 X
b00000000000000000000000000000000 &
b00000000000000000000000000000000 "Z
b0000000000000000 ^
1:
b00000000000000000000000000000000 o
b0000000000000000 ,
b00000000000000000000000000000000 =
b00000000000000000000000000000000 "7
b0000 "G
b00000000000000000000000000000000 7
b0000000000000000000000000000000000000 t
b00000000000000000000000000000000 "P
b0000000000000000 "W
b0000000000000000000000000000000000000 "9
1"H
02
0"b
b00000000000000000000000000000000 "J
0"0
b0000000000000000 $
b0000000000000000 m
b00000000000000000000000000000000 ~
0}
b0000000000000000 ;
b00000000000000000000000000000000 "[
b00000000000000000000000000000000 "F
b00000000000000000000000000000000 F
0"X
0\
b00000000000000000000000000000000 ]
0";
b00000000000000000000000000000000 H
0*
b00000000000000000000000000000000 +
b00000000000000000000000000000000 "_
b0000000000000000 "I
b00000000000000000000000000000000 W
$end
#0
1Q
1"U
b0000000000000000000000000000000000001 [
1"'
#1
10
1v
1@
1}
1"X
1*
1"@
#6
00
0v
0@
0}
0"X
0*
0"@
#11
10
1v
1@
1}
1"X
1*
1"@
#16
00
0v
0@
0}
0"X
0*
0"@
#21
10
1v
1@
1}
1"X
1*
1"@
#26
00
0v
0@
0}
0"X
0*
0"@
#31
10
1v
1@
1}
1"X
1*
1"@
#36
00
0v
0@
0}
0"X
0*
0"@
#41
10
1v
1@
1}
1"X
1*
1"@
#46
0Q
14
1g
0v
0}
0"X
16
1";
0"'
00
1c
0@
12
0"U
0*
1{
0"@
#51
10
1v
1@
1}
1"X
1"1
1*
1"@
#56
00
b0000000000000001 ",
b0000000000000001 %
b0000000000000001 "3
0v
0@
0}
0"X
0*
b0000000000000001 x
0"@
#61
10
1v
b0000000000000001 .
1@
1}
1"X
1*
1"@
#66
00
b0000000000000010 ",
b0000000000000010 %
b0000000000000010 "3
0v
0@
0}
0"X
0*
b0000000000000010 x
0"@
#71
10
1v
b0000000000000010 .
1@
1}
1"X
1*
1"@
#76
00
b0000000000000011 ",
b0000000000000011 %
b0000000000000011 "3
0v
0@
0}
0"X
0*
b0000000000000011 x
0"@
#81
10
1v
b0000000000000011 .
1@
1}
1"X
1*
1"@
#86
00
b0000000000000100 ",
b0000000000000100 %
b0000000000000100 "3
0v
0@
0}
0"X
0*
b0000000000000100 x
0"@
#91
10
1v
b0000000000000100 .
1@
1}
1"X
1*
1"@
#96
00
b0000000000000101 ",
b0000000000000101 %
b0000000000000101 "3
0v
0@
0}
0"X
0*
b0000000000000101 x
0"@
#101
10
1v
b0000000000000101 .
1@
1}
1"X
1*
1"@
#106
00
b0000000000000110 ",
b0000000000000110 %
b0000000000000110 "3
0v
0@
0}
0"X
0*
b0000000000000110 x
0"@
#111
10
1v
b0000000000000110 .
1@
1}
1"X
1*
1"@
#116
00
b0000000000000111 ",
b0000000000000111 %
b0000000000000111 "3
0v
0@
0}
0"X
0*
b0000000000000111 x
0"@
#121
10
1v
b0000000000000111 .
1@
1}
1"X
1*
1"@
#126
00
b0000000000001000 ",
b0000000000001000 %
b0000000000001000 "3
0v
0@
0}
0"X
0*
b0000000000001000 x
0"@
#131
10
1v
b0000000000001000 .
1@
1}
1"X
1*
1"@
#136
00
b0000000000001001 ",
b0000000000001001 %
b0000000000001001 "3
0v
0@
0}
0"X
0*
b0000000000001001 x
0"@
#141
10
1v
b0000000000001001 .
1@
1}
1"X
1*
1"@
#146
00
b0000000000001010 ",
b0000000000001010 %
b0000000000001010 "3
0v
0@
0}
0"X
0*
b0000000000001010 x
0"@
#151
10
1v
b0000000000001010 .
1@
1}
1"X
1*
1"@
#156
00
b0000000000001011 ",
b0000000000001011 %
b0000000000001011 "3
0v
0@
0}
0"X
0*
b0000000000001011 x
0"@
#161
10
1v
b0000000000001011 .
1@
1}
1"X
1*
1"@
#166
00
b0000000000001100 ",
b0000000000001100 %
b0000000000001100 "3
0v
0@
0}
0"X
0*
b0000000000001100 x
0"@
#171
10
1v
b0000000000001100 .
1@
1}
1"X
1*
1"@
#176
00
b0000000000001101 ",
b0000000000001101 %
b0000000000001101 "3
0v
0@
0}
0"X
0*
b0000000000001101 x
0"@
#181
10
1v
b0000000000001101 .
1@
1}
1"X
1*
1"@
#186
00
b0000000000001110 ",
b0000000000001110 %
b0000000000001110 "3
0v
0@
0}
0"X
0*
b0000000000001110 x
0"@
#191
10
1v
b0000000000001110 .
1@
1}
1"X
1*
1"@
#196
00
b0000000000001111 ",
b0000000000001111 %
b0000000000001111 "3
0v
0@
0}
0"X
0*
b0000000000001111 x
0"@
#201
10
1v
b0000000000001111 .
1@
1}
1"X
1*
1"@
#206
00
b0000000000010000 ",
b0000000000010000 %
b0000000000010000 "3
0v
0@
0}
0"X
0*
b0000000000010000 x
0"@
#211
10
1v
b0000000000010000 .
1@
1}
1"X
1*
1"@
#216
00
b0000000000010001 ",
b0000000000010001 %
b0000000000010001 "3
0v
0@
0}
0"X
0*
b0000000000010001 x
0"@
#221
10
1v
b0000000000010001 .
1@
1}
1"X
1*
1"@
#226
00
b0000000000010010 ",
b0000000000010010 %
b0000000000010010 "3
0v
0@
0}
0"X
0*
b0000000000010010 x
0"@
#231
10
1v
b0000000000010010 .
1@
1}
1"X
1*
1"@
#236
00
b0000000000010011 ",
b0000000000010011 %
b0000000000010011 "3
0v
0@
0}
0"X
0*
b0000000000010011 x
0"@
#241
10
1v
b0000000000010011 .
1@
1}
1"X
1*
1"@
#246
00
b0000000000010100 ",
b0000000000010100 %
b0000000000010100 "3
0v
0@
0}
0"X
0*
b0000000000010100 x
0"@
#251
10
1v
b0000000000010100 .
1@
1}
1"X
1*
1"@
#256
00
b0000000000010101 ",
b0000000000010101 %
b0000000000010101 "3
0v
0@
0}
0"X
0*
b0000000000010101 x
0"@
#261
10
1v
b0000000000010101 .
1@
1}
1"X
1*
1"@
#266
00
b0000000000010110 ",
b0000000000010110 %
b0000000000010110 "3
0v
0@
0}
0"X
0*
b0000000000010110 x
0"@
#271
10
1v
b0000000000010110 .
1@
1}
1"X
1*
1"@
#276
00
b0000000000010111 ",
b0000000000010111 %
b0000000000010111 "3
0v
0@
0}
0"X
0*
b0000000000010111 x
0"@
#281
10
1v
b0000000000010111 .
1@
1}
1"X
1*
1"@
#286
00
b0000000000011000 ",
b0000000000011000 %
b0000000000011000 "3
0v
0@
0}
0"X
0*
b0000000000011000 x
0"@
#291
10
1v
b0000000000011000 .
1@
1}
1"X
1*
1"@
#296
00
b0000000000011001 ",
b0000000000011001 %
b0000000000011001 "3
0v
0@
0}
0"X
0*
b0000000000011001 x
0"@
#301
10
1v
b0000000000011001 .
1@
1}
1"X
1*
1"@
#306
00
b0000000000011010 ",
b0000000000011010 %
b0000000000011010 "3
0v
0@
0}
0"X
0*
b0000000000011010 x
0"@
#311
10
1v
b0000000000011010 .
1@
1}
1"X
1*
1"@
#316
00
b0000000000011011 ",
b0000000000011011 %
b0000000000011011 "3
0v
0@
0}
0"X
0*
b0000000000011011 x
0"@
#321
10
1v
b0000000000011011 .
1@
1}
1"X
1*
1"@
#326
00
b0000000000011100 ",
b0000000000011100 %
b0000000000011100 "3
0v
0@
0}
0"X
0*
b0000000000011100 x
0"@
#331
10
1v
b0000000000011100 .
1@
1}
1"X
1*
1"@
#336
00
b0000000000011101 ",
b0000000000011101 %
b0000000000011101 "3
0v
0@
0}
0"X
0*
b0000000000011101 x
0"@
#341
10
1v
b0000000000011101 .
1@
1}
1"X
1*
1"@
#346
00
b0000000000011110 ",
b0000000000011110 %
b0000000000011110 "3
0v
0@
0}
0"X
0*
b0000000000011110 x
0"@
#351
10
1v
b0000000000011110 .
1@
1}
1"X
1*
1"@
#356
00
b0000000000011111 ",
b0000000000011111 %
b0000000000011111 "3
0v
0@
0}
0"X
0*
b0000000000011111 x
0"@
#361
10
1v
b0000000000011111 .
1@
1}
1"X
1*
1"@
#366
00
b0000000000100000 ",
b0000000000100000 %
b0000000000100000 "3
0v
0@
0}
0"X
0*
b0000000000100000 x
0"@
#371
10
1v
b0000000000100000 .
1@
1}
1"X
1*
1"@
#376
00
b0000000000100001 ",
b0000000000100001 %
b0000000000100001 "3
0v
0@
0}
0"X
0*
b0000000000100001 x
0"@
#381
10
1v
b0000000000100001 .
1@
1}
1"X
1*
1"@
#386
00
b0000000000100010 ",
b0000000000100010 %
b0000000000100010 "3
0v
0@
0}
0"X
0*
b0000000000100010 x
0"@
#391
10
1v
b0000000000100010 .
1@
1}
1"X
1*
1"@
#396
00
b0000000000100011 ",
b0000000000100011 %
b0000000000100011 "3
0v
0@
0}
0"X
0*
b0000000000100011 x
0"@
#401
10
1v
b0000000000100011 .
1@
1}
1"X
1*
1"@
#406
00
b0000000000100100 ",
b0000000000100100 %
b0000000000100100 "3
0v
0@
0}
0"X
0*
b0000000000100100 x
0"@
#411
10
1v
b0000000000100100 .
1@
1}
1"X
1*
1"@
#416
00
b0000000000100101 ",
b0000000000100101 %
b0000000000100101 "3
0v
0@
0}
0"X
0*
b0000000000100101 x
0"@
#421
10
1v
b0000000000100101 .
1@
1}
1"X
1*
1"@
#426
00
b0000000000100110 ",
b0000000000100110 %
b0000000000100110 "3
0v
0@
0}
0"X
0*
b0000000000100110 x
0"@
#431
10
1v
b0000000000100110 .
1@
1}
1"X
1*
1"@
#436
00
b0000000000100111 ",
b0000000000100111 %
b0000000000100111 "3
0v
0@
0}
0"X
0*
b0000000000100111 x
0"@
#441
10
1v
b0000000000100111 .
1@
1}
1"X
1*
1"@
#446
00
b0000000000101000 ",
b0000000000101000 %
b0000000000101000 "3
0v
0@
0}
0"X
0*
b0000000000101000 x
0"@
#451
10
1v
b0000000000101000 .
1@
1}
1"X
1*
1"@
#456
00
b0000000000101001 ",
b0000000000101001 %
b0000000000101001 "3
0v
0@
0}
0"X
0*
b0000000000101001 x
0"@
#461
10
1v
b0000000000101001 .
1@
1}
1"X
1*
1"@
#466
00
b0000000000101010 ",
b0000000000101010 %
b0000000000101010 "3
0v
0@
0}
0"X
0*
b0000000000101010 x
0"@
#471
10
1v
b0000000000101010 .
1@
1}
1"X
1*
1"@
#476
00
b0000000000101011 ",
b0000000000101011 %
b0000000000101011 "3
0v
0@
0}
0"X
0*
b0000000000101011 x
0"@
#481
10
1v
b0000000000101011 .
1@
1}
1"X
1*
1"@
#486
00
b0000000000101100 ",
b0000000000101100 %
b0000000000101100 "3
0v
0@
0}
0"X
0*
b0000000000101100 x
0"@
#491
10
1v
b0000000000101100 .
1@
1}
1"X
1*
1"@
#496
00
b0000000000101101 ",
b0000000000101101 %
b0000000000101101 "3
0v
0@
0}
0"X
0*
b0000000000101101 x
0"@
#501
10
1v
b0000000000101101 .
1@
1}
1"X
1*
1"@
#506
00
b0000000000101110 ",
b0000000000101110 %
b0000000000101110 "3
0v
0@
0}
0"X
0*
b0000000000101110 x
0"@
#511
10
1v
b0000000000101110 .
1@
1}
1"X
1*
1"@
#516
00
b0000000000101111 ",
b0000000000101111 %
b0000000000101111 "3
0v
0@
0}
0"X
0*
b0000000000101111 x
0"@
#521
10
1v
b0000000000101111 .
1@
1}
1"X
1*
1"@
#526
00
b0000000000110000 ",
b0000000000110000 %
b0000000000110000 "3
0v
0@
0}
0"X
0*
b0000000000110000 x
0"@
#531
10
1v
b0000000000110000 .
1@
1}
1"X
1*
1"@
#536
00
b0000000000110001 ",
b0000000000110001 %
b0000000000110001 "3
0v
0@
0}
0"X
0*
b0000000000110001 x
0"@
#541
10
1v
b0000000000110001 .
1@
1}
1"X
1*
1"@
#546
00
b0000000000110010 ",
b0000000000110010 %
b0000000000110010 "3
0v
0@
0}
0"X
0*
b0000000000110010 x
0"@
#551
10
1v
b0000000000110010 .
1@
1}
1"X
1*
1"@
#556
00
b0000000000110011 ",
b0000000000110011 %
b0000000000110011 "3
0v
0@
0}
0"X
0*
b0000000000110011 x
0"@
#561
10
1v
b0000000000110011 .
1@
1}
1"X
1*
1"@
#566
00
b0000000000110100 ",
b0000000000110100 %
b0000000000110100 "3
0v
0@
0}
0"X
0*
b0000000000110100 x
0"@
#571
10
1v
b0000000000110100 .
1@
1}
1"X
1*
1"@
#576
00
b0000000000110101 ",
b0000000000110101 %
b0000000000110101 "3
0v
0@
0}
0"X
0*
b0000000000110101 x
0"@
#581
10
1v
b0000000000110101 .
1@
1}
1"X
1*
1"@
#586
00
b0000000000110110 ",
b0000000000110110 %
b0000000000110110 "3
0v
0@
0}
0"X
0*
b0000000000110110 x
0"@
#591
10
1v
b0000000000110110 .
1@
1}
1"X
1*
1"@
#596
00
b0000000000110111 ",
b0000000000110111 %
b0000000000110111 "3
0v
0@
0}
0"X
0*
b0000000000110111 x
0"@
#601
10
1v
b0000000000110111 .
1@
1}
1"X
1*
1"@
#606
00
b0000000000111000 ",
b0000000000111000 %
b0000000000111000 "3
0v
0@
0}
0"X
0*
b0000000000111000 x
0"@
#611
10
1v
b0000000000111000 .
1@
1}
1"X
1*
1"@
#616
00
b0000000000111001 ",
b0000000000111001 %
b0000000000111001 "3
0v
0@
0}
0"X
0*
b0000000000111001 x
0"@
#621
10
1v
b0000000000111001 .
1@
1}
1"X
1*
1"@
#626
00
b0000000000111010 ",
b0000000000111010 %
b0000000000111010 "3
0v
0@
0}
0"X
0*
b0000000000111010 x
0"@
#631
10
1v
b0000000000111010 .
1@
1}
1"X
1*
1"@
#636
00
b0000000000111011 ",
b0000000000111011 %
b0000000000111011 "3
0v
0@
0}
0"X
0*
b0000000000111011 x
0"@
#641
10
1v
b0000000000111011 .
1@
1}
1"X
1*
1"@
#646
00
b0000000000111100 ",
b0000000000111100 %
b0000000000111100 "3
0v
0@
0}
0"X
0*
b0000000000111100 x
0"@
#651
10
1v
b0000000000111100 .
1@
1}
1"X
1*
1"@
#656
00
b0000000000111101 ",
b0000000000111101 %
b0000000000111101 "3
0v
0@
0}
0"X
0*
b0000000000111101 x
0"@
#661
10
1v
b0000000000111101 .
1@
1}
1"X
1*
1"@
#666
00
b0000000000111110 ",
b0000000000111110 %
b0000000000111110 "3
0v
0@
0}
0"X
0*
b0000000000111110 x
0"@
#671
10
1v
b0000000000111110 .
1@
1}
1"X
1*
1"@
#676
00
b0000000000111111 ",
b0000000000111111 %
b0000000000111111 "3
0v
0@
0}
0"X
0*
b0000000000111111 x
0"@
#681
10
1v
b0000000000111111 .
1@
1}
1"X
1*
1"@
#686
00
b0000000001000000 ",
b0000000001000000 %
b0000000001000000 "3
0v
0@
0}
0"X
0*
b0000000001000000 x
0"@
#691
10
1v
b0000000001000000 .
1@
1}
1"X
1*
1"@
#696
00
b0000000001000001 ",
b0000000001000001 %
b0000000001000001 "3
0v
0@
0}
0"X
0*
b0000000001000001 x
0"@
#701
10
1v
b0000000001000001 .
1@
1}
1"X
1*
1"@
#706
00
b0000000001000010 ",
b0000000001000010 %
b0000000001000010 "3
0v
0@
0}
0"X
0*
b0000000001000010 x
0"@
#711
10
1v
b0000000001000010 .
1@
1}
1"X
1*
1"@
#716
00
b0000000001000011 ",
b0000000001000011 %
b0000000001000011 "3
0v
0@
0}
0"X
0*
b0000000001000011 x
0"@
#721
10
1v
b0000000001000011 .
1@
1}
1"X
1*
1"@
#726
00
b0000000001000100 ",
b0000000001000100 %
b0000000001000100 "3
0v
0@
0}
0"X
0*
b0000000001000100 x
0"@
#731
10
1v
b0000000001000100 .
1@
1}
1"X
1*
1"@
#736
00
b0000000001000101 ",
b0000000001000101 %
b0000000001000101 "3
0v
0@
0}
0"X
0*
b0000000001000101 x
0"@
#741
10
1v
b0000000001000101 .
1@
1}
1"X
1*
1"@
#746
00
b0000000001000110 ",
b0000000001000110 %
b0000000001000110 "3
0v
0@
0}
0"X
0*
b0000000001000110 x
0"@
#751
10
1v
b0000000001000110 .
1@
1}
1"X
1*
1"@
#756
00
b0000000001000111 ",
b0000000001000111 %
b0000000001000111 "3
0v
0@
0}
0"X
0*
b0000000001000111 x
0"@
#761
10
1v
b0000000001000111 .
1@
1}
1"X
1*
1"@
#766
00
b0000000001001000 ",
b0000000001001000 %
b0000000001001000 "3
0v
0@
0}
0"X
0*
b0000000001001000 x
0"@
#771
10
1v
b0000000001001000 .
1@
1}
1"X
1*
1"@
#776
00
b0000000001001001 ",
b0000000001001001 %
b0000000001001001 "3
0v
0@
0}
0"X
0*
b0000000001001001 x
0"@
#781
10
1v
b0000000001001001 .
1@
1}
1"X
1*
1"@
#786
00
b0000000001001010 ",
b0000000001001010 %
b0000000001001010 "3
0v
0@
0}
0"X
0*
b0000000001001010 x
0"@
#791
10
1v
b0000000001001010 .
1@
1}
1"X
1*
1"@
#796
00
b0000000001001011 ",
b0000000001001011 %
b0000000001001011 "3
0v
0@
0}
0"X
0*
b0000000001001011 x
0"@
#801
10
1v
b0000000001001011 .
1@
1}
1"X
1*
1"@
#806
00
b0000000001001100 ",
b0000000001001100 %
b0000000001001100 "3
0v
0@
0}
0"X
0*
b0000000001001100 x
0"@
#811
10
1v
b0000000001001100 .
1@
1}
1"X
1*
1"@
#816
00
b0000000001001101 ",
b0000000001001101 %
b0000000001001101 "3
0v
0@
0}
0"X
0*
b0000000001001101 x
0"@
#821
10
1v
b0000000001001101 .
1@
1}
1"X
1*
1"@
#826
00
b0000000001001110 ",
b0000000001001110 %
b0000000001001110 "3
0v
0@
0}
0"X
0*
b0000000001001110 x
0"@
#831
10
1v
b0000000001001110 .
1@
1}
1"X
1*
1"@
#836
00
b0000000001001111 ",
b0000000001001111 %
b0000000001001111 "3
0v
0@
0}
0"X
0*
b0000000001001111 x
0"@
#841
10
1v
b0000000001001111 .
1@
1}
1"X
1*
1"@
#846
00
b0000000001010000 ",
b0000000001010000 %
b0000000001010000 "3
0v
0@
0}
0"X
0*
b0000000001010000 x
0"@
#851
10
1v
b0000000001010000 .
1@
1}
1"X
1*
1"@
#856
00
b0000000001010001 ",
b0000000001010001 %
b0000000001010001 "3
0v
0@
0}
0"X
0*
b0000000001010001 x
0"@
#861
10
1v
b0000000001010001 .
1@
1}
1"X
1*
1"@
#866
00
b0000000001010010 ",
b0000000001010010 %
b0000000001010010 "3
0v
0@
0}
0"X
0*
b0000000001010010 x
0"@
#871
10
1v
b0000000001010010 .
1@
1}
1"X
1*
1"@
#876
00
b0000000001010011 ",
b0000000001010011 %
b0000000001010011 "3
0v
0@
0}
0"X
0*
b0000000001010011 x
0"@
#881
10
1v
b0000000001010011 .
1@
1}
1"X
1*
1"@
#886
00
b0000000001010100 ",
b0000000001010100 %
b0000000001010100 "3
0v
0@
0}
0"X
0*
b0000000001010100 x
0"@
#891
10
1v
b0000000001010100 .
1@
1}
1"X
1*
1"@
#896
00
b0000000001010101 ",
b0000000001010101 %
b0000000001010101 "3
0v
0@
0}
0"X
0*
b0000000001010101 x
0"@
#901
10
1v
b0000000001010101 .
1@
1}
1"X
1*
1"@
#906
00
b0000000001010110 ",
b0000000001010110 %
b0000000001010110 "3
0v
0@
0}
0"X
0*
b0000000001010110 x
0"@
#911
10
1v
b0000000001010110 .
1@
1}
1"X
1*
1"@
#916
00
b0000000001010111 ",
b0000000001010111 %
b0000000001010111 "3
0v
0@
0}
0"X
0*
b0000000001010111 x
0"@
#921
10
1v
b0000000001010111 .
1@
1}
1"X
1*
1"@
#926
00
b0000000001011000 ",
b0000000001011000 %
b0000000001011000 "3
0v
0@
0}
0"X
0*
b0000000001011000 x
0"@
#931
10
1v
b0000000001011000 .
1@
1}
1"X
1*
1"@
#936
00
b0000000001011001 ",
b0000000001011001 %
b0000000001011001 "3
0v
0@
0}
0"X
0*
b0000000001011001 x
0"@
#941
10
1v
b0000000001011001 .
1@
1}
1"X
1*
1"@
#946
00
b0000000001011010 ",
b0000000001011010 %
b0000000001011010 "3
0v
0@
0}
0"X
0*
b0000000001011010 x
0"@
#951
10
1v
b0000000001011010 .
1@
1}
1"X
1*
1"@
#956
00
b0000000001011011 ",
b0000000001011011 %
b0000000001011011 "3
0v
0@
0}
0"X
0*
b0000000001011011 x
0"@
#961
10
1v
b0000000001011011 .
1@
1}
1"X
1*
1"@
#966
00
b0000000001011100 ",
b0000000001011100 %
b0000000001011100 "3
0v
0@
0}
0"X
0*
b0000000001011100 x
0"@
#971
10
1v
b0000000001011100 .
1@
1}
1"X
1*
1"@
#976
00
b0000000001011101 ",
b0000000001011101 %
b0000000001011101 "3
0v
0@
0}
0"X
0*
b0000000001011101 x
0"@
#981
10
1v
b0000000001011101 .
1@
1}
1"X
1*
1"@
#986
00
b0000000001011110 ",
b0000000001011110 %
b0000000001011110 "3
0v
0@
0}
0"X
0*
b0000000001011110 x
0"@
#991
10
1v
b0000000001011110 .
1@
1}
1"X
1*
1"@
