codeA3/generated/SystemTop.vcd
$date
2024-12-04T11:29+0000
$end
$version
0.2
$end
$comment

$end
$timescale 1ns  $end
$scope module SystemTop $end
 $var wire 32 # io_testerDataMemDataRead $end
 $var wire 1 5 io_testerDataMemWriteEnable $end
 $var wire 32 d io_testerDataMemDataWrite $end
 $var wire 1 h io_start $end
 $var wire 1 t io_testerDataMemEnable $end
 $var wire 1 "- clock $end
 $var wire 16 ": io_testerDataMemAddress $end
 $var wire 1 "; dataMemory $end
 $var wire 1 "> accelerator $end
 $var wire 1 "D io_done $end
 $var wire 1 "h reset $end
  $scope module dataMemory $end
   $var wire 32 ! _GEN_11 $end
   $var wire 32 ' io_testerDataWrite $end
   $var wire 1 3 clock $end
   $var wire 1 7 io_testerEnable $end
   $var wire 32 M io_dataRead $end
   $var wire 32 N io_dataWrite $end
   $var wire 1 o io_testerWriteEnable $end
   $var wire 32 q _GEN_5 $end
   $var wire 16 "( io_address $end
   $var wire 1 ", io_writeEnable $end
   $var wire 16 "C io_testerAddress $end
   $var wire 32 "H memory $end
   $var wire 32 "X io_testerDataRead $end
    $scope module memory $end
      $scope module _T_1 $end
       $var wire 16 % addr $end
       $var wire 16 1 pipeline_addr_0 $end
       $var wire 1 : en $end
       $var wire 32 _ data $end
       $var wire 32 "" pipeline_data_0 $end
       $var wire 1 "? pipeline_valid_0 $end
       $var wire 1 "L valid $end
       $var wire 1 "Z mask $end
       $var wire 1 "l clk $end
      $upscope $end
      $scope module _T $end
       $var wire 1 + clk $end
       $var wire 16 "' addr $end
       $var wire 1 "+ en $end
       $var wire 32 "b data $end
      $upscope $end
      $scope module _T_3 $end
       $var wire 1 8 pipeline_valid_0 $end
       $var wire 1 = en $end
       $var wire 1 > mask $end
       $var wire 16 D pipeline_addr_0 $end
       $var wire 16 j addr $end
       $var wire 1 "% clk $end
       $var wire 32 "< pipeline_data_0 $end
       $var wire 32 "K data $end
       $var wire 1 "x valid $end
      $upscope $end
      $scope module _T_2 $end
       $var wire 1 F clk $end
       $var wire 16 O addr $end
       $var wire 32 | data $end
       $var wire 1 "6 en $end
      $upscope $end
    $upscope $end
  $upscope $end
  $scope module accelerator $end
   $var wire 32 " _GEN_2 $end
   $var wire 1 $ _GEN_13 $end
   $var wire 1 & _GEN_96 $end
   $var wire 32 ( _GEN_110 $end
   $var wire 1 ) _GEN_28 $end
   $var wire 32 * _GEN_34 $end
   $var wire 32 , _GEN_104 $end
   $var wire 32 - _GEN_90 $end
   $var wire 6 . _GEN_5 $end
   $var wire 4 / _GEN_78 $end
   $var wire 32 0 _GEN_107 $end
   $var wire 32 2 _GEN_99 $end
   $var wire 32 4 _GEN_16 $end
   $var wire 32 6 _GEN_84 $end
   $var wire 32 9 yReg $end
   $var wire 1 ; _GEN_72 $end
   $var wire 32 < _GEN_66 $end
   $var wire 4 ? _GEN_87 $end
   $var wire 32 @ _GEN_8 $end
   $var wire 32 A debugRegVal $end
   $var wire 32 B _GEN_93 $end
   $var wire 32 C _GEN_51 $end
   $var wire 32 E _GEN_81 $end
   $var wire 32 G _GEN_75 $end
   $var wire 32 H _GEN_48 $end
   $var wire 32 I inImageRightReg $end
   $var wire 32 J _GEN_54 $end
   $var wire 32 K inImageDownReg $end
   $var wire 32 L _GEN_33 $end
   $var wire 32 P _GEN_69 $end
   $var wire 32 Q _GEN_60 $end
   $var wire 32 R _GEN_106 $end
   $var wire 32 S _GEN_57 $end
   $var wire 32 T inImageReg $end
   $var wire 32 U _GEN_15 $end
   $var wire 32 V _GEN_42 $end
   $var wire 1 W _GEN_36 $end
   $var wire 32 X _GEN_63 $end
   $var wire 37 Y _GEN_21 $end
   $var wire 1 Z reset $end
   $var wire 32 [ _GEN_24 $end
   $var wire 32 \ _GEN_30 $end
   $var wire 6 ] _GEN_7 $end
   $var wire 32 ^ _GEN_92 $end
   $var wire 32 ` _GEN_18 $end
   $var wire 32 a _GEN_45 $end
   $var wire 37 b _GEN_115 $end
   $var wire 4 c _GEN_39 $end
   $var wire 32 e _GEN_109 $end
   $var wire 1 f _GEN_100 $end
   $var wire 32 g _GEN_103 $end
   $var wire 37 i _GEN_74 $end
   $var wire 1 k _GEN_27 $end
   $var wire 32 l _GEN_95 $end
   $var wire 32 m _GEN_80 $end
   $var wire 37 n _GEN_89 $end
   $var wire 4 p _GEN_12 $end
   $var wire 4 r stateReg $end
   $var wire 4 s _GEN_1 $end
   $var wire 32 u _GEN_77 $end
   $var wire 6 v _GEN_4 $end
   $var wire 32 w _GEN_83 $end
   $var wire 1 x _T $end
   $var wire 4 y _GEN_62 $end
   $var wire 32 z _GEN_98 $end
   $var wire 32 { _GEN_56 $end
   $var wire 32 } _GEN_38 $end
   $var wire 4 ~ _GEN_50 $end
   $var wire 1 "! _GEN_86 $end
   $var wire 32 "# _GEN_44 $end
   $var wire 37 "$ _GEN_59 $end
   $var wire 32 "& _GEN_71 $end
   $var wire 32 ") inImageLeftReg $end
   $var wire 32 "* _GEN_65 $end
   $var wire 32 ". _GEN_32 $end
   $var wire 1 "/ _GEN_53 $end
   $var wire 37 "0 _GEN_47 $end
   $var wire 1 "1 io_done $end
   $var wire 37 "2 _GEN_117 $end
   $var wire 32 "3 _GEN_11 $end
   $var wire 32 "4 _GEN_68 $end
   $var wire 32 "5 _GEN_26 $end
   $var wire 1 "7 io_writeEnable $end
   $var wire 32 "8 _GEN_35 $end
   $var wire 37 "9 _GEN_41 $end
   $var wire 37 "= _GEN_29 $end
   $var wire 37 "@ _GEN_14 $end
   $var wire 37 "A _GEN_105 $end
   $var wire 32 "B xReg $end
   $var wire 4 "E _GEN_17 $end
   $var wire 32 "F io_dataWrite $end
   $var wire 32 "G _GEN_85 $end
   $var wire 32 "I _GEN_91 $end
   $var wire 32 "J _GEN_108 $end
   $var wire 6 "M _GEN_6 $end
   $var wire 4 "N _GEN_23 $end
   $var wire 32 "O debugReg $end
   $var wire 32 "P _GEN_0 $end
   $var wire 16 "Q io_address $end
   $var wire 1 "R clock $end
   $var wire 4 "S _GEN_102 $end
   $var wire 32 "T _GEN_88 $end
   $var wire 1 "U io_start $end
   $var wire 32 "V io_dataRead $end
   $var wire 32 "W _GEN_73 $end
   $var wire 1 "Y _GEN_67 $end
   $var wire 32 "[ _GEN_94 $end
   $var wire 32 "\ _GEN_61 $end
   $var wire 32 "] _GEN_49 $end
   $var wire 1 "^ _GEN_82 $end
   $var wire 1 "_ _GEN_40 $end
   $var wire 32 "` _GEN_97 $end
   $var wire 32 "a _GEN_55 $end
   $var wire 6 "c _GEN_3 $end
   $var wire 32 "d _GEN_76 $end
   $var wire 32 "e _GEN_113 $end
   $var wire 32 "f _GEN_79 $end
   $var wire 32 "g _GEN_70 $end
   $var wire 32 "i inImageTopReg $end
   $var wire 32 "j _GEN_37 $end
   $var wire 32 "k _GEN_43 $end
   $var wire 1 "m _GEN_58 $end
   $var wire 32 "n _GEN_22 $end
   $var wire 32 "o _GEN_64 $end
   $var wire 4 "p _GEN_31 $end
   $var wire 37 "q _GEN_116 $end
   $var wire 1 "r _GEN_46 $end
   $var wire 32 "s _GEN_101 $end
   $var wire 32 "t _GEN_52 $end
   $var wire 4 "u _GEN_10 $end
   $var wire 1 "v _GEN_19 $end
   $var wire 32 "w _GEN_25 $end
  $upscope $end
$upscope $end
$enddefinitions $end
$dumpvars
0"L
0"7
b00000000000000000000000000000000 <
0&
b00000000000000000000000000000000 '
0o
b0000 "N
0=
0"1
b0000 r
b00000000000000000000000000000000 "j
b00000000000000000000000000000000 "8
b00000000000000000000000000000000 "#
b00000000000000000000000000000000 "d
b00000000000000000000000000000000 l
0"v
b00000000000000000000000000000000 "I
b00000000000000000000000000000000 "4
b00000000000000000000000000000000 Q
0"x
b00000000000000000000000000000000 "`
b00000000000000000000000000000000 }
b00000000000000000000000000000000 `
b00000000000000000000000000000000 K
05
b00000000000000000000000000000000 6
b00000000000000000000000000000000 ".
b0000000000000000 %
0"r
b00000000000000000000000000000000 w
b00000000000000000000000000000000 E
b00000000000000000000000000000000 0
b00000000000000000000000000000000 "\
0x
b00000000000000000000000000000000 "G
b0000000000000000000000000000000000000 "0
0F
b00000000000000000000000000000000 "*
0)
b00000000000000000000000000000000 "s
b0000 s
b0000000000000000000000000000000000000 "2
1>
b00000000000000000000000000000000 A
0+
b00000000000000000000000000000000 "X
b000000 v
b000000 "c
b0000 "S
b00000000000000000000000000000000 "&
b0000000000000000000000000000000000000 "A
0W
b00000000000000000000000000000000 "o
0"U
b00000000000000000000000000000000 (
0"l
b00000000000000000000000000000000 q
b0000 ?
b00000000000000000000000000000000 T
b00000000000000000000000000000000 "k
b00000000000000000000000000000000 V
b00000000000000000000000000000000 9
b00000000000000000000000000000000 m
b00000000000000000000000000000000 e
b00000000000000000000000000000000 P
0:
b0000000000000000000000000000000000000 "$
b00000000000000000000000000000000 "g
b00000000000000000000000000000000 |
0f
b00000000000000000000000000000000 "5
b0000 "E
b00000000000000000000000000000000 J
b0000000000000000 "'
b00000000000000000000000000000000 "a
0"?
b0000 /
b00000000000000000000000000000000 "]
b00000000000000000000000000000000 "H
b00000000000000000000000000000000 "W
b00000000000000000000000000000000 _
b000000 "M
b0000000000000000000000000000000000000 "@
b0000000000000000 1
b00000000000000000000000000000000 B
b00000000000000000000000000000000 -
b00000000000000000000000000000000 "<
0;
b0000 p
0Z
b00000000000000000000000000000000 [
b00000000000000000000000000000000 S
b0000000000000000 "(
b00000000000000000000000000000000 !
b00000000000000000000000000000000 U
b0000000000000000 D
07
b00000000000000000000000000000000 #
b00000000000000000000000000000000 "O
0k
0"_
0"-
b00000000000000000000000000000000 2
b00000000000000000000000000000000 "f
b0000000000000000 "C
0"D
0"/
b00000000000000000000000000000000 I
b00000000000000000000000000000000 4
03
b00000000000000000000000000000000 "K
b0000 "p
b0000000000000000 O
b00000000000000000000000000000000 "w
b00000000000000000000000000000000 "b
b0000000000000000000000000000000000000 i
b00000000000000000000000000000000 M
1"Z
0"+
b0000 y
b00000000000000000000000000000000 d
b000000 ]
b00000000000000000000000000000000 \
b00000000000000000000000000000000 G
0"%
b00000000000000000000000000000000 *
b0000000000000000 j
b00000000000000000000000000000000 {
0"Y
b00000000000000000000000000000000 ^
b00000000000000000000000000000000 ,
b00000000000000000000000000000000 u
0"h
0t
0">
b00000000000000000000000000000000 X
b00000000000000000000000000000000 C
0"6
0"!
b0000000000000000000000000000000000000 Y
b00000000000000000000000000000000 "i
b00000000000000000000000000000000 "T
b0000000000000000000000000000000000000 "=
b00000000000000000000000000000000 ""
b00000000000000000000000000000000 "
b0000000000000000000000000000000000000 "q
b00000000000000000000000000000000 "V
b00000000000000000000000000000000 N
08
0",
b00000000000000000000000000000000 "e
b00000000000000000000000000000000 "P
b0000 "u
b0000000000000000000000000000000000000 "9
b00000000000000000000000000000000 "3
b0000000000000000 ":
b00000000000000000000000000000000 "J
b00000000000000000000000000000000 g
b00000000000000000000000000000000 R
b0000000000000000000000000000000000000 n
b000000 .
b0000 ~
0h
b00000000000000000000000000000000 a
b00000000000000000000000000000000 L
b0000 c
0"^
b00000000000000000000000000000000 "F
b00000000000000000000000000000000 "[
b0000000000000000000000000000000000000 b
b00000000000000000000000000000000 ")
b00000000000000000000000000000000 z
0"m
b00000000000000000000000000000000 H
0";
b00000000000000000000000000000000 @
b00000000000000000000000000000000 "t
b0000000000000000 "Q
b00000000000000000000000000000000 "B
0"R
0$
b00000000000000000000000000000000 "n
$end
#0
b0000011111111111111111111111111111111 "q
1"6
b110100 v
b110101 .
b110011 "c
b000010 ]
1Z
b110110 "M
1x
1"h
b0000000000000000000000000000000000001 b
#1
13
1F
1"%
1+
1"-
1"l
1"R
#6
03
0F
0"%
0+
0"-
0"l
0"R
#11
13
1F
1"%
1+
1"-
1"l
1"R
#16
03
0F
0"%
0+
0"-
0"l
0"R
#21
13
1F
1"%
1+
1"-
1"l
1"R
#26
03
0F
0"%
0+
0"-
0"l
0"R
#31
13
1F
1"%
1+
1"-
1"l
1"R
#36
03
0F
0"%
0+
0"-
0"l
0"R
#41
13
1F
1"%
1+
1"-
1"l
1"R
#46
03
15
0"%
1o
0Z
0"h
0"-
17
0"R
1"L
0F
0"6
0+
1:
0"l
1t
1"+
#51
13
1F
1"?
1"%
1+
1"-
1"l
1"R
#56
b0000000000000001 ":
03
b0000000000000001 %
0F
0"%
b0000000000000001 "C
0+
0"-
b0000000000000001 "'
0"l
0"R
#61
13
1F
b0000000000000001 1
1"%
1+
1"-
1"l
1"R
#66
b0000000000000010 ":
03
b0000000000000010 %
0F
0"%
b0000000000000010 "C
0+
0"-
b0000000000000010 "'
0"l
0"R
#71
13
1F
b0000000000000010 1
1"%
1+
1"-
1"l
1"R
#76
b0000000000000011 ":
03
b0000000000000011 %
0F
0"%
b0000000000000011 "C
0+
0"-
b0000000000000011 "'
0"l
0"R
#81
13
1F
b0000000000000011 1
1"%
1+
1"-
1"l
1"R
#86
b0000000000000100 ":
03
b0000000000000100 %
0F
0"%
b0000000000000100 "C
0+
0"-
b0000000000000100 "'
0"l
0"R
#91
13
1F
b0000000000000100 1
1"%
1+
1"-
1"l
1"R
#96
b0000000000000101 ":
03
b0000000000000101 %
0F
0"%
b0000000000000101 "C
0+
0"-
b0000000000000101 "'
0"l
0"R
#101
13
1F
b0000000000000101 1
1"%
1+
1"-
1"l
1"R
#106
b0000000000000110 ":
03
b0000000000000110 %
0F
0"%
b0000000000000110 "C
0+
0"-
b0000000000000110 "'
0"l
0"R
#111
13
1F
b0000000000000110 1
1"%
1+
1"-
1"l
1"R
#116
b0000000000000111 ":
03
b0000000000000111 %
0F
0"%
b0000000000000111 "C
0+
0"-
b0000000000000111 "'
0"l
0"R
#121
13
1F
b0000000000000111 1
1"%
1+
1"-
1"l
1"R
#126
b0000000000001000 ":
03
b0000000000001000 %
0F
0"%
b0000000000001000 "C
0+
0"-
b0000000000001000 "'
0"l
0"R
#131
13
1F
b0000000000001000 1
1"%
1+
1"-
1"l
1"R
#136
b0000000000001001 ":
03
b0000000000001001 %
0F
0"%
b0000000000001001 "C
0+
0"-
b0000000000001001 "'
0"l
0"R
#141
13
1F
b0000000000001001 1
1"%
1+
1"-
1"l
1"R
#146
b0000000000001010 ":
03
b0000000000001010 %
0F
0"%
b0000000000001010 "C
0+
0"-
b0000000000001010 "'
0"l
0"R
#151
13
1F
b0000000000001010 1
1"%
1+
1"-
1"l
1"R
#156
b0000000000001011 ":
03
b0000000000001011 %
0F
0"%
b0000000000001011 "C
0+
0"-
b0000000000001011 "'
0"l
0"R
#161
13
1F
b0000000000001011 1
1"%
1+
1"-
1"l
1"R
#166
b0000000000001100 ":
03
b0000000000001100 %
0F
0"%
b0000000000001100 "C
0+
0"-
b0000000000001100 "'
0"l
0"R
#171
13
1F
b0000000000001100 1
1"%
1+
1"-
1"l
1"R
#176
b0000000000001101 ":
03
b0000000000001101 %
0F
0"%
b0000000000001101 "C
0+
0"-
b0000000000001101 "'
0"l
0"R
#181
13
1F
b0000000000001101 1
1"%
1+
1"-
1"l
1"R
#186
b0000000000001110 ":
03
b0000000000001110 %
0F
0"%
b0000000000001110 "C
0+
0"-
b0000000000001110 "'
0"l
0"R
#191
13
1F
b0000000000001110 1
1"%
1+
1"-
1"l
1"R
#196
b0000000000001111 ":
03
b0000000000001111 %
0F
0"%
b0000000000001111 "C
0+
0"-
b0000000000001111 "'
0"l
0"R
#201
13
1F
b0000000000001111 1
1"%
1+
1"-
1"l
1"R
#206
b0000000000010000 ":
03
b0000000000010000 %
0F
0"%
b0000000000010000 "C
0+
0"-
b0000000000010000 "'
0"l
0"R
#211
13
1F
b0000000000010000 1
1"%
1+
1"-
1"l
1"R
#216
b0000000000010001 ":
03
b0000000000010001 %
0F
0"%
b0000000000010001 "C
0+
0"-
b0000000000010001 "'
0"l
0"R
#221
13
1F
b0000000000010001 1
1"%
1+
1"-
1"l
1"R
#226
b0000000000010010 ":
03
b0000000000010010 %
0F
0"%
b0000000000010010 "C
0+
0"-
b0000000000010010 "'
0"l
0"R
#231
13
1F
b0000000000010010 1
1"%
1+
1"-
1"l
1"R
#236
b0000000000010011 ":
03
b0000000000010011 %
0F
0"%
b0000000000010011 "C
0+
0"-
b0000000000010011 "'
0"l
0"R
#241
13
1F
b0000000000010011 1
1"%
1+
1"-
1"l
1"R
#246
b0000000000010100 ":
03
b0000000000010100 %
0F
0"%
b0000000000010100 "C
0+
0"-
b0000000000010100 "'
0"l
0"R
#251
13
1F
b0000000000010100 1
1"%
1+
1"-
1"l
1"R
#256
b0000000000010101 ":
03
b0000000000010101 %
0F
0"%
b0000000000010101 "C
0+
0"-
b0000000000010101 "'
0"l
0"R
#261
13
1F
b0000000000010101 1
1"%
1+
1"-
1"l
1"R
#266
b0000000000010110 ":
03
b0000000000010110 %
0F
0"%
b0000000000010110 "C
0+
0"-
b0000000000010110 "'
0"l
0"R
#271
13
1F
b0000000000010110 1
1"%
1+
1"-
1"l
1"R
#276
b0000000000010111 ":
03
b0000000000010111 %
0F
0"%
b0000000000010111 "C
0+
0"-
b0000000000010111 "'
0"l
0"R
#281
13
1F
b0000000000010111 1
1"%
1+
1"-
1"l
1"R
#286
b0000000000011000 ":
03
b0000000000011000 %
0F
0"%
b0000000000011000 "C
0+
0"-
b0000000000011000 "'
0"l
0"R
#291
13
1F
b0000000000011000 1
1"%
1+
1"-
1"l
1"R
#296
b0000000000011001 ":
03
b0000000000011001 %
0F
0"%
b0000000000011001 "C
0+
0"-
b0000000000011001 "'
0"l
0"R
#301
13
1F
b0000000000011001 1
1"%
1+
1"-
1"l
1"R
#306
b0000000000011010 ":
03
b0000000000011010 %
0F
0"%
b0000000000011010 "C
0+
0"-
b0000000000011010 "'
0"l
0"R
#311
13
1F
b0000000000011010 1
1"%
1+
1"-
1"l
1"R
#316
b0000000000011011 ":
03
b0000000000011011 %
0F
0"%
b0000000000011011 "C
0+
0"-
b0000000000011011 "'
0"l
0"R
#321
13
1F
b0000000000011011 1
1"%
1+
1"-
1"l
1"R
#326
b0000000000011100 ":
03
b0000000000011100 %
0F
0"%
b0000000000011100 "C
0+
0"-
b0000000000011100 "'
0"l
0"R
#331
13
1F
b0000000000011100 1
1"%
1+
1"-
1"l
1"R
#336
b0000000000011101 ":
03
b0000000000011101 %
0F
0"%
b0000000000011101 "C
0+
0"-
b0000000000011101 "'
0"l
0"R
#341
13
1F
b0000000000011101 1
1"%
1+
1"-
1"l
1"R
#346
b0000000000011110 ":
03
b0000000000011110 %
0F
0"%
b0000000000011110 "C
0+
0"-
b0000000000011110 "'
0"l
0"R
#351
13
1F
b0000000000011110 1
1"%
1+
1"-
1"l
1"R
#356
b0000000000011111 ":
03
b0000000000011111 %
0F
0"%
b0000000000011111 "C
0+
0"-
b0000000000011111 "'
0"l
0"R
#361
13
1F
b0000000000011111 1
1"%
1+
1"-
1"l
1"R
#366
b0000000000100000 ":
03
b0000000000100000 %
0F
0"%
b0000000000100000 "C
0+
0"-
b0000000000100000 "'
0"l
0"R
#371
13
1F
b0000000000100000 1
1"%
1+
1"-
1"l
1"R
#376
b0000000000100001 ":
03
b0000000000100001 %
0F
0"%
b0000000000100001 "C
0+
0"-
b0000000000100001 "'
0"l
0"R
#381
13
1F
b0000000000100001 1
1"%
1+
1"-
1"l
1"R
#386
b0000000000100010 ":
03
b0000000000100010 %
0F
0"%
b0000000000100010 "C
0+
0"-
b0000000000100010 "'
0"l
0"R
#391
13
1F
b0000000000100010 1
1"%
1+
1"-
1"l
1"R
#396
b0000000000100011 ":
03
b0000000000100011 %
0F
0"%
b0000000000100011 "C
0+
0"-
b0000000000100011 "'
0"l
0"R
#401
13
1F
b0000000000100011 1
1"%
1+
1"-
1"l
1"R
#406
b0000000000100100 ":
03
b0000000000100100 %
0F
0"%
b0000000000100100 "C
0+
0"-
b0000000000100100 "'
0"l
0"R
#411
13
1F
b0000000000100100 1
1"%
1+
1"-
1"l
1"R
#416
b0000000000100101 ":
03
b0000000000100101 %
0F
0"%
b0000000000100101 "C
0+
0"-
b0000000000100101 "'
0"l
0"R
#421
13
1F
b0000000000100101 1
1"%
1+
1"-
1"l
1"R
#426
b0000000000100110 ":
03
b0000000000100110 %
0F
0"%
b0000000000100110 "C
0+
0"-
b0000000000100110 "'
0"l
0"R
#431
13
1F
b0000000000100110 1
1"%
1+
1"-
1"l
1"R
#436
b0000000000100111 ":
03
b0000000000100111 %
0F
0"%
b0000000000100111 "C
0+
0"-
b0000000000100111 "'
0"l
0"R
#441
13
1F
b0000000000100111 1
1"%
1+
1"-
1"l
1"R
#446
b0000000000101000 ":
03
b0000000000101000 %
0F
0"%
b0000000000101000 "C
0+
0"-
b0000000000101000 "'
0"l
0"R
#451
13
1F
b0000000000101000 1
1"%
1+
1"-
1"l
1"R
#456
b0000000000101001 ":
03
b0000000000101001 %
0F
0"%
b0000000000101001 "C
0+
0"-
b0000000000101001 "'
0"l
0"R
#461
13
1F
b0000000000101001 1
1"%
1+
1"-
1"l
1"R
#466
b0000000000101010 ":
03
b0000000000101010 %
0F
0"%
b0000000000101010 "C
0+
0"-
b0000000000101010 "'
0"l
0"R
#471
13
1F
b0000000000101010 1
1"%
1+
1"-
1"l
1"R
#476
b0000000000101011 ":
03
b0000000000101011 %
0F
0"%
b0000000000101011 "C
0+
0"-
b0000000000101011 "'
0"l
0"R
#481
13
1F
b0000000000101011 1
1"%
1+
1"-
1"l
1"R
#486
b0000000000101100 ":
03
b0000000000101100 %
0F
0"%
b0000000000101100 "C
0+
0"-
b0000000000101100 "'
0"l
0"R
#491
13
1F
b0000000000101100 1
1"%
1+
1"-
1"l
1"R
#496
b0000000000101101 ":
03
b0000000000101101 %
0F
0"%
b0000000000101101 "C
0+
0"-
b0000000000101101 "'
0"l
0"R
#501
13
1F
b0000000000101101 1
1"%
1+
1"-
1"l
1"R
#506
b0000000000101110 ":
03
b0000000000101110 %
0F
0"%
b0000000000101110 "C
0+
0"-
b0000000000101110 "'
0"l
0"R
#511
13
1F
b0000000000101110 1
1"%
1+
1"-
1"l
1"R
#516
b0000000000101111 ":
03
b0000000000101111 %
0F
0"%
b0000000000101111 "C
0+
0"-
b0000000000101111 "'
0"l
0"R
#521
13
1F
b0000000000101111 1
1"%
1+
1"-
1"l
1"R
#526
b0000000000110000 ":
03
b0000000000110000 %
0F
0"%
b0000000000110000 "C
0+
0"-
b0000000000110000 "'
0"l
0"R
#531
13
1F
b0000000000110000 1
1"%
1+
1"-
1"l
1"R
#536
b0000000000110001 ":
03
b0000000000110001 %
0F
0"%
b0000000000110001 "C
0+
0"-
b0000000000110001 "'
0"l
0"R
#541
13
1F
b0000000000110001 1
1"%
1+
1"-
1"l
1"R
#546
b0000000000110010 ":
03
b0000000000110010 %
0F
0"%
b0000000000110010 "C
0+
0"-
b0000000000110010 "'
0"l
0"R
#551
13
1F
b0000000000110010 1
1"%
1+
1"-
1"l
1"R
#556
b0000000000110011 ":
03
b0000000000110011 %
0F
0"%
b0000000000110011 "C
0+
0"-
b0000000000110011 "'
0"l
0"R
#561
13
1F
b0000000000110011 1
1"%
1+
1"-
1"l
1"R
#566
b0000000000110100 ":
03
b0000000000110100 %
0F
0"%
b0000000000110100 "C
0+
0"-
b0000000000110100 "'
0"l
0"R
#571
13
1F
b0000000000110100 1
1"%
1+
1"-
1"l
1"R
#576
b0000000000110101 ":
03
b0000000000110101 %
0F
0"%
b0000000000110101 "C
0+
0"-
b0000000000110101 "'
0"l
0"R
#581
13
1F
b0000000000110101 1
1"%
1+
1"-
1"l
1"R
#586
b0000000000110110 ":
03
b0000000000110110 %
0F
0"%
b0000000000110110 "C
0+
0"-
b0000000000110110 "'
0"l
0"R
#591
13
1F
b0000000000110110 1
1"%
1+
1"-
1"l
1"R
#596
b0000000000110111 ":
03
b0000000000110111 %
0F
0"%
b0000000000110111 "C
0+
0"-
b0000000000110111 "'
0"l
0"R
#601
13
1F
b0000000000110111 1
1"%
1+
1"-
1"l
1"R
#606
b0000000000111000 ":
03
b0000000000111000 %
0F
0"%
b0000000000111000 "C
0+
0"-
b0000000000111000 "'
0"l
0"R
#611
13
1F
b0000000000111000 1
1"%
1+
1"-
1"l
1"R
#616
b0000000000111001 ":
03
b0000000000111001 %
0F
0"%
b0000000000111001 "C
0+
0"-
b0000000000111001 "'
0"l
0"R
#621
13
1F
b0000000000111001 1
1"%
1+
1"-
1"l
1"R
#626
b0000000000111010 ":
03
b0000000000111010 %
0F
0"%
b0000000000111010 "C
0+
0"-
b0000000000111010 "'
0"l
0"R
#631
13
1F
b0000000000111010 1
1"%
1+
1"-
1"l
1"R
#636
b0000000000111011 ":
03
b0000000000111011 %
0F
0"%
b0000000000111011 "C
0+
0"-
b0000000000111011 "'
0"l
0"R
#641
13
1F
b0000000000111011 1
1"%
1+
1"-
1"l
1"R
#646
b0000000000111100 ":
03
b0000000000111100 %
0F
0"%
b0000000000111100 "C
0+
0"-
b0000000000111100 "'
0"l
0"R
#651
13
1F
b0000000000111100 1
1"%
1+
1"-
1"l
1"R
#656
b0000000000111101 ":
03
b0000000000111101 %
0F
0"%
b0000000000111101 "C
0+
0"-
b0000000000111101 "'
0"l
0"R
#661
13
1F
b0000000000111101 1
1"%
1+
1"-
1"l
1"R
#666
b0000000000111110 ":
03
b0000000000111110 %
0F
0"%
b0000000000111110 "C
0+
0"-
b0000000000111110 "'
0"l
0"R
#671
13
1F
b0000000000111110 1
1"%
1+
1"-
1"l
1"R
#676
b0000000000111111 ":
03
b0000000000111111 %
0F
0"%
b0000000000111111 "C
0+
0"-
b0000000000111111 "'
0"l
0"R
#681
13
1F
b0000000000111111 1
1"%
1+
1"-
1"l
1"R
#686
b0000000001000000 ":
03
b0000000001000000 %
0F
0"%
b0000000001000000 "C
0+
0"-
b0000000001000000 "'
0"l
0"R
#691
13
1F
b0000000001000000 1
1"%
1+
1"-
1"l
1"R
#696
b0000000001000001 ":
03
b0000000001000001 %
0F
0"%
b0000000001000001 "C
0+
0"-
b0000000001000001 "'
0"l
0"R
#701
13
1F
b0000000001000001 1
1"%
1+
1"-
1"l
1"R
#706
b0000000001000010 ":
03
b0000000001000010 %
0F
0"%
b0000000001000010 "C
0+
0"-
b0000000001000010 "'
0"l
0"R
#711
13
1F
b0000000001000010 1
1"%
1+
1"-
1"l
1"R
#716
b0000000001000011 ":
03
b0000000001000011 %
0F
0"%
b0000000001000011 "C
0+
0"-
b0000000001000011 "'
0"l
0"R
#721
13
1F
b0000000001000011 1
1"%
1+
1"-
1"l
1"R
#726
b0000000001000100 ":
03
b0000000001000100 %
0F
0"%
b0000000001000100 "C
0+
0"-
b0000000001000100 "'
0"l
0"R
#731
13
1F
b0000000001000100 1
1"%
1+
1"-
1"l
1"R
#736
b0000000001000101 ":
03
b0000000001000101 %
0F
0"%
b0000000001000101 "C
0+
0"-
b0000000001000101 "'
0"l
0"R
#741
13
1F
b0000000001000101 1
1"%
1+
1"-
1"l
1"R
#746
b0000000001000110 ":
03
b0000000001000110 %
0F
0"%
b0000000001000110 "C
0+
0"-
b0000000001000110 "'
0"l
0"R
#751
13
1F
b0000000001000110 1
1"%
1+
1"-
1"l
1"R
#756
b0000000001000111 ":
03
b0000000001000111 %
0F
0"%
b0000000001000111 "C
0+
0"-
b0000000001000111 "'
0"l
0"R
#761
13
1F
b0000000001000111 1
1"%
1+
1"-
1"l
1"R
#766
b0000000001001000 ":
03
b0000000001001000 %
0F
0"%
b0000000001001000 "C
0+
0"-
b0000000001001000 "'
0"l
0"R
#771
13
1F
b0000000001001000 1
1"%
1+
1"-
1"l
1"R
#776
b0000000001001001 ":
03
b0000000001001001 %
0F
0"%
b0000000001001001 "C
0+
0"-
b0000000001001001 "'
0"l
0"R
#781
13
1F
b0000000001001001 1
1"%
1+
1"-
1"l
1"R
#786
b0000000001001010 ":
03
b0000000001001010 %
0F
0"%
b0000000001001010 "C
0+
0"-
b0000000001001010 "'
0"l
0"R
#791
13
1F
b0000000001001010 1
1"%
1+
1"-
1"l
1"R
#796
b0000000001001011 ":
03
b0000000001001011 %
0F
0"%
b0000000001001011 "C
0+
0"-
b0000000001001011 "'
0"l
0"R
#801
13
1F
b0000000001001011 1
1"%
1+
1"-
1"l
1"R
#806
b0000000001001100 ":
03
b0000000001001100 %
0F
0"%
b0000000001001100 "C
0+
0"-
b0000000001001100 "'
0"l
0"R
#811
13
1F
b0000000001001100 1
1"%
1+
1"-
1"l
1"R
#816
b0000000001001101 ":
03
b0000000001001101 %
0F
0"%
b0000000001001101 "C
0+
0"-
b0000000001001101 "'
0"l
0"R
#821
13
1F
b0000000001001101 1
1"%
1+
1"-
1"l
1"R
#826
b0000000001001110 ":
03
b0000000001001110 %
0F
0"%
b0000000001001110 "C
0+
0"-
b0000000001001110 "'
0"l
0"R
#831
13
1F
b0000000001001110 1
1"%
1+
1"-
1"l
1"R
#836
b0000000001001111 ":
03
b0000000001001111 %
0F
0"%
b0000000001001111 "C
0+
0"-
b0000000001001111 "'
0"l
0"R
#841
13
1F
b0000000001001111 1
1"%
1+
1"-
1"l
1"R
#846
b0000000001010000 ":
03
b0000000001010000 %
0F
0"%
b0000000001010000 "C
0+
0"-
b0000000001010000 "'
0"l
0"R
#851
13
1F
b0000000001010000 1
1"%
1+
1"-
1"l
1"R
#856
b0000000001010001 ":
03
b0000000001010001 %
0F
0"%
b0000000001010001 "C
0+
0"-
b0000000001010001 "'
0"l
0"R
#861
13
1F
b0000000001010001 1
1"%
1+
1"-
1"l
1"R
#866
b0000000001010010 ":
03
b0000000001010010 %
0F
0"%
b0000000001010010 "C
0+
0"-
b0000000001010010 "'
0"l
0"R
#871
13
1F
b0000000001010010 1
1"%
1+
1"-
1"l
1"R
