codeA3/generated/SystemTop.vcd
$date
2024-12-04T13:25+0000
$end
$version
0.2
$end
$comment

$end
$timescale 1ns  $end
$scope module SystemTop $end
 $var wire 32 # io_testerDataMemDataRead $end
 $var wire 1 6 io_testerDataMemWriteEnable $end
 $var wire 32 e io_testerDataMemDataWrite $end
 $var wire 1 i io_start $end
 $var wire 1 u io_testerDataMemEnable $end
 $var wire 1 ". clock $end
 $var wire 16 "; io_testerDataMemAddress $end
 $var wire 1 "< dataMemory $end
 $var wire 1 "? accelerator $end
 $var wire 1 "E io_done $end
 $var wire 1 "h reset $end
  $scope module dataMemory $end
   $var wire 32 ! _GEN_11 $end
   $var wire 32 ( io_testerDataWrite $end
   $var wire 1 4 clock $end
   $var wire 1 8 io_testerEnable $end
   $var wire 32 N io_dataRead $end
   $var wire 32 O io_dataWrite $end
   $var wire 1 p io_testerWriteEnable $end
   $var wire 32 r _GEN_5 $end
   $var wire 16 ") io_address $end
   $var wire 1 "- io_writeEnable $end
   $var wire 16 "D io_testerAddress $end
   $var wire 32 "I memory $end
   $var wire 32 "Y io_testerDataRead $end
    $scope module memory $end
      $scope module _T_1 $end
       $var wire 16 & addr $end
       $var wire 16 2 pipeline_addr_0 $end
       $var wire 1 ; en $end
       $var wire 32 ` data $end
       $var wire 32 "# pipeline_data_0 $end
       $var wire 1 "@ pipeline_valid_0 $end
       $var wire 1 "M valid $end
       $var wire 1 "[ mask $end
       $var wire 1 "l clk $end
      $upscope $end
      $scope module _T $end
       $var wire 1 , clk $end
       $var wire 16 "( addr $end
       $var wire 1 ", en $end
       $var wire 32 "c data $end
      $upscope $end
      $scope module _T_3 $end
       $var wire 1 9 pipeline_valid_0 $end
       $var wire 1 > en $end
       $var wire 1 ? mask $end
       $var wire 16 E pipeline_addr_0 $end
       $var wire 16 k addr $end
       $var wire 1 "& clk $end
       $var wire 32 "= pipeline_data_0 $end
       $var wire 32 "L data $end
       $var wire 1 "x valid $end
      $upscope $end
      $scope module _T_2 $end
       $var wire 1 G clk $end
       $var wire 16 P addr $end
       $var wire 32 } data $end
       $var wire 1 "6 en $end
      $upscope $end
    $upscope $end
  $upscope $end
  $scope module accelerator $end
   $var wire 32 " _GEN_2 $end
   $var wire 37 $ _GEN_119 $end
   $var wire 1 % _GEN_13 $end
   $var wire 32 ' _GEN_96 $end
   $var wire 32 ) _GEN_110 $end
   $var wire 1 * _GEN_28 $end
   $var wire 32 + _GEN_34 $end
   $var wire 32 - _GEN_104 $end
   $var wire 37 . _GEN_90 $end
   $var wire 6 / _GEN_5 $end
   $var wire 4 0 _GEN_78 $end
   $var wire 32 1 _GEN_107 $end
   $var wire 32 3 _GEN_99 $end
   $var wire 32 5 _GEN_16 $end
   $var wire 32 7 _GEN_84 $end
   $var wire 32 : yReg $end
   $var wire 1 < _GEN_72 $end
   $var wire 32 = _GEN_66 $end
   $var wire 4 @ _GEN_87 $end
   $var wire 32 A _GEN_8 $end
   $var wire 32 B debugRegVal $end
   $var wire 32 C _GEN_93 $end
   $var wire 32 D _GEN_51 $end
   $var wire 32 F _GEN_81 $end
   $var wire 37 H _GEN_75 $end
   $var wire 37 I _GEN_48 $end
   $var wire 32 J inImageRightReg $end
   $var wire 32 K _GEN_54 $end
   $var wire 32 L inImageDownReg $end
   $var wire 32 M _GEN_33 $end
   $var wire 32 Q _GEN_69 $end
   $var wire 32 R _GEN_60 $end
   $var wire 37 S _GEN_106 $end
   $var wire 32 T _GEN_57 $end
   $var wire 32 U inImageReg $end
   $var wire 32 V _GEN_15 $end
   $var wire 32 W _GEN_42 $end
   $var wire 1 X _GEN_36 $end
   $var wire 32 Y _GEN_63 $end
   $var wire 37 Z _GEN_21 $end
   $var wire 1 [ reset $end
   $var wire 32 \ _GEN_24 $end
   $var wire 32 ] _GEN_30 $end
   $var wire 6 ^ _GEN_7 $end
   $var wire 32 _ _GEN_92 $end
   $var wire 32 a _GEN_18 $end
   $var wire 32 b _GEN_45 $end
   $var wire 37 c _GEN_115 $end
   $var wire 4 d _GEN_39 $end
   $var wire 32 f _GEN_109 $end
   $var wire 1 g _GEN_100 $end
   $var wire 32 h _GEN_103 $end
   $var wire 32 j _GEN_74 $end
   $var wire 1 l _GEN_27 $end
   $var wire 32 m _GEN_95 $end
   $var wire 32 n _GEN_80 $end
   $var wire 32 o _GEN_89 $end
   $var wire 4 q _GEN_12 $end
   $var wire 4 s stateReg $end
   $var wire 4 t _GEN_1 $end
   $var wire 32 v _GEN_77 $end
   $var wire 6 w _GEN_4 $end
   $var wire 1 x _GEN_83 $end
   $var wire 1 y _T $end
   $var wire 4 z _GEN_62 $end
   $var wire 32 { _GEN_98 $end
   $var wire 32 | _GEN_56 $end
   $var wire 32 ~ _GEN_38 $end
   $var wire 4 "! _GEN_50 $end
   $var wire 1 "" _GEN_86 $end
   $var wire 32 "$ _GEN_44 $end
   $var wire 37 "% _GEN_59 $end
   $var wire 32 "' _GEN_71 $end
   $var wire 32 "* inImageLeftReg $end
   $var wire 32 "+ _GEN_65 $end
   $var wire 32 "/ _GEN_32 $end
   $var wire 1 "0 _GEN_53 $end
   $var wire 32 "1 _GEN_47 $end
   $var wire 1 "2 io_done $end
   $var wire 32 "3 _GEN_11 $end
   $var wire 32 "4 _GEN_68 $end
   $var wire 32 "5 _GEN_26 $end
   $var wire 1 "7 io_writeEnable $end
   $var wire 32 "8 _GEN_35 $end
   $var wire 37 "9 _GEN_41 $end
   $var wire 32 ": _GEN_111 $end
   $var wire 37 "> _GEN_29 $end
   $var wire 37 "A _GEN_14 $end
   $var wire 32 "B _GEN_105 $end
   $var wire 32 "C xReg $end
   $var wire 4 "F _GEN_17 $end
   $var wire 32 "G io_dataWrite $end
   $var wire 32 "H _GEN_85 $end
   $var wire 32 "J _GEN_91 $end
   $var wire 32 "K _GEN_108 $end
   $var wire 6 "N _GEN_6 $end
   $var wire 4 "O _GEN_23 $end
   $var wire 32 "P debugReg $end
   $var wire 32 "Q _GEN_0 $end
   $var wire 16 "R io_address $end
   $var wire 1 "S clock $end
   $var wire 4 "T _GEN_102 $end
   $var wire 32 "U _GEN_88 $end
   $var wire 1 "V io_start $end
   $var wire 32 "W io_dataRead $end
   $var wire 32 "X _GEN_73 $end
   $var wire 1 "Z _GEN_67 $end
   $var wire 32 "\ _GEN_94 $end
   $var wire 32 "] _GEN_61 $end
   $var wire 32 "^ _GEN_49 $end
   $var wire 32 "_ _GEN_82 $end
   $var wire 1 "` _GEN_40 $end
   $var wire 1 "a _GEN_97 $end
   $var wire 32 "b _GEN_55 $end
   $var wire 6 "d _GEN_3 $end
   $var wire 32 "e _GEN_76 $end
   $var wire 32 "f _GEN_79 $end
   $var wire 32 "g _GEN_70 $end
   $var wire 32 "i inImageTopReg $end
   $var wire 32 "j _GEN_37 $end
   $var wire 32 "k _GEN_43 $end
   $var wire 1 "m _GEN_58 $end
   $var wire 32 "n _GEN_22 $end
   $var wire 32 "o _GEN_64 $end
   $var wire 4 "p _GEN_31 $end
   $var wire 37 "q _GEN_116 $end
   $var wire 1 "r _GEN_46 $end
   $var wire 32 "s _GEN_101 $end
   $var wire 32 "t _GEN_52 $end
   $var wire 4 "u _GEN_10 $end
   $var wire 1 "v _GEN_19 $end
   $var wire 32 "w _GEN_25 $end
  $upscope $end
$upscope $end
$enddefinitions $end
$dumpvars
b00000000000000000000000000000000 n
0X
b00000000000000000000000000000000 Y
0"7
0""
b00000000000000000000000000000000 '
b00000000000000000000000000000000 "j
b00000000000000000000000000000000 "U
b00000000000000000000000000000000 r
b0000 @
b00000000000000000000000000000000 "8
b00000000000000000000000000000000 "#
b00000000000000000000000000000000 O
b00000000000000000000000000000000 :
b0000000000000000000000000000000000000 $
0"v
b00000000000000000000000000000000 "I
b00000000000000000000000000000000 "4
b00000000000000000000000000000000 Q
b0000000000000000 ";
0"x
b00000000000000000000000000000000 }
0g
b00000000000000000000000000000000 h
b00000000000000000000000000000000 `
b00000000000000000000000000000000 K
b000000 /
0"r
b00000000000000000000000000000000 b
0"@
b00000000000000000000000000000000 "\
0x
b00000000000000000000000000000000 "G
b00000000000000000000000000000000 "*
0[
b00000000000000000000000000000000 "s
b0000 s
0"<
b00000000000000000000000000000000 A
b00000000000000000000000000000000 "X
b00000000000000000000000000000000 "C
b000000 "N
b0000000000000000000000000000000000000 "A
b0000 "!
0%
b00000000000000000000000000000000 "o
b00000000000000000000000000000000 "=
b0000000000000000 "D
b00000000000000000000000000000000 (
b0000 q
0"l
0p
b00000000000000000000000000000000 T
0>
0"2
06
b00000000000000000000000000000000 "k
b0000000000000000 E
b00000000000000000000000000000000 V
b00000000000000000000000000000000 m
0l
0"`
b00000000000000000000000000000000 e
0".
b00000000000000000000000000000000 3
b00000000000000000000000000000000 "g
b00000000000000000000000000000000 |
b0000000000000000 k
0"Z
0"E
b00000000000000000000000000000000 "5
b00000000000000000000000000000000 J
04
b00000000000000000000000000000000 "L
b0000000000000000000000000000000000000 S
b00000000000000000000000000000000 "/
0"?
b00000000000000000000000000000000 "c
b00000000000000000000000000000000 "1
0"V
1"[
b0000 z
b00000000000000000000000000000000 )
b00000000000000000000000000000000 "]
b00000000000000000000000000000000 "H
b000000 ^
b00000000000000000000000000000000 "+
b0000 t
b00000000000000000000000000000000 "W
b00000000000000000000000000000000 _
b0000000000000000000000000000000000000 I
b00000000000000000000000000000000 B
b00000000000000000000000000000000 -
0u
b00000000000000000000000000000000 "'
b00000000000000000000000000000000 D
b0000000000000000000000000000000000000 "%
0;
b0000000000000000000000000000000000000 .
b0000000000000000000000000000000000000 Z
b0000000000000000 "(
b0000 "F
b00000000000000000000000000000000 !
b00000000000000000000000000000000 j
b0000000000000000000000000000000000000 ">
b00000000000000000000000000000000 U
0i
b00000000000000000000000000000000 #
b00000000000000000000000000000000 ":
09
0"-
b00000000000000000000000000000000 "f
b00000000000000000000000000000000 "Q
0"a
b00000000000000000000000000000000 f
b00000000000000000000000000000000 "K
b0000 "p
b0000000000000000 "R
b00000000000000000000000000000000 "w
b00000000000000000000000000000000 "b
b00000000000000000000000000000000 M
b0000 0
b0000 d
b0000000000000000000000000000000000000 c
b00000000000000000000000000000000 \
b00000000000000000000000000000000 "^
b00000000000000000000000000000000 {
b00000000000000000000000000000000 "$
b0000000000000000000000000000000000000 H
0"h
0"S
b00000000000000000000000000000000 C
0"6
b0000000000000000 2
b00000000000000000000000000000000 o
0"M
0<
b00000000000000000000000000000000 =
b00000000000000000000000000000000 "i
b0000 "O
b0000000000000000 ")
b0000000000000000 &
b00000000000000000000000000000000 "
b00000000000000000000000000000000 7
b0000000000000000000000000000000000000 "q
b00000000000000000000000000000000 N
08
0",
b00000000000000000000000000000000 "e
b00000000000000000000000000000000 "P
b0000 "u
b0000000000000000000000000000000000000 "9
b00000000000000000000000000000000 "3
b00000000000000000000000000000000 "J
b00000000000000000000000000000000 R
0"0
b00000000000000000000000000000000 5
b00000000000000000000000000000000 ~
b00000000000000000000000000000000 a
b00000000000000000000000000000000 L
b0000 "T
b0000000000000000 P
b00000000000000000000000000000000 F
b00000000000000000000000000000000 1
0y
0"m
b00000000000000000000000000000000 ]
0G
0"&
0*
b00000000000000000000000000000000 +
b00000000000000000000000000000000 "t
b00000000000000000000000000000000 "_
b00000000000000000000000000000000 "B
1?
b00000000000000000000000000000000 W
0,
b00000000000000000000000000000000 "n
b00000000000000000000000000000000 "Y
b00000000000000000000000000000000 v
b000000 "d
b000000 w
$end
#0
b0000000000000000000000000000000000001 c
1y
1"6
b110100 w
b0000011111111111111111111111111111111 $
1"h
b000010 ^
1[
b110110 "N
b110101 /
b110011 "d
#1
1"S
14
1G
1"&
1"l
1,
1".
#6
0"S
04
0G
0"&
0"l
0,
0".
#11
1"S
14
1G
1"&
1"l
1,
1".
#16
0"S
04
0G
0"&
0"l
0,
0".
#21
1"S
14
1G
1"&
1"l
1,
1".
#26
0"S
04
0G
0"&
0"l
0,
0".
#31
1"S
14
1G
1"&
1"l
1,
1".
#36
0"S
04
0G
0"&
0"l
0,
0".
#41
1"S
14
1G
1"&
1"l
1,
1".
#46
1u
1",
04
16
0"&
0"h
1p
0[
0".
0"S
0"6
18
0G
1"M
0"l
0,
1;
#51
1"S
14
1G
1"&
1"l
1,
1".
1"@
#56
b0000000000000001 "D
0"S
04
b0000000000000001 &
0G
b0000000000000001 "(
b0000000000000001 ";
0"&
0"l
0,
0".
#61
1"S
14
1G
b0000000000000001 2
1"&
1"l
1,
1".
#66
b0000000000000010 "D
0"S
04
b0000000000000010 &
0G
b0000000000000010 "(
b0000000000000010 ";
0"&
0"l
0,
0".
#71
1"S
14
1G
b0000000000000010 2
1"&
1"l
1,
1".
#76
b0000000000000011 "D
0"S
04
b0000000000000011 &
0G
b0000000000000011 "(
b0000000000000011 ";
0"&
0"l
0,
0".
#81
1"S
14
1G
b0000000000000011 2
1"&
1"l
1,
1".
#86
b0000000000000100 "D
0"S
04
b0000000000000100 &
0G
b0000000000000100 "(
b0000000000000100 ";
0"&
0"l
0,
0".
#91
1"S
14
1G
b0000000000000100 2
1"&
1"l
1,
1".
#96
b0000000000000101 "D
0"S
04
b0000000000000101 &
0G
b0000000000000101 "(
b0000000000000101 ";
0"&
0"l
0,
0".
#101
1"S
14
1G
b0000000000000101 2
1"&
1"l
1,
1".
#106
b0000000000000110 "D
0"S
04
b0000000000000110 &
0G
b0000000000000110 "(
b0000000000000110 ";
0"&
0"l
0,
0".
#111
1"S
14
1G
b0000000000000110 2
1"&
1"l
1,
1".
#116
b0000000000000111 "D
0"S
04
b0000000000000111 &
0G
b0000000000000111 "(
b0000000000000111 ";
0"&
0"l
0,
0".
#121
1"S
14
1G
b0000000000000111 2
1"&
1"l
1,
1".
#126
b0000000000001000 "D
0"S
04
b0000000000001000 &
0G
b0000000000001000 "(
b0000000000001000 ";
0"&
0"l
0,
0".
#131
1"S
14
1G
b0000000000001000 2
1"&
1"l
1,
1".
#136
b0000000000001001 "D
0"S
04
b0000000000001001 &
0G
b0000000000001001 "(
b0000000000001001 ";
0"&
0"l
0,
0".
#141
1"S
14
1G
b0000000000001001 2
1"&
1"l
1,
1".
#146
b0000000000001010 "D
0"S
04
b0000000000001010 &
0G
b0000000000001010 "(
b0000000000001010 ";
0"&
0"l
0,
0".
#151
1"S
14
1G
b0000000000001010 2
1"&
1"l
1,
1".
#156
b0000000000001011 "D
0"S
04
b0000000000001011 &
0G
b0000000000001011 "(
b0000000000001011 ";
0"&
0"l
0,
0".
#161
1"S
14
1G
b0000000000001011 2
1"&
1"l
1,
1".
#166
b0000000000001100 "D
0"S
04
b0000000000001100 &
0G
b0000000000001100 "(
b0000000000001100 ";
0"&
0"l
0,
0".
#171
1"S
14
1G
b0000000000001100 2
1"&
1"l
1,
1".
#176
b0000000000001101 "D
0"S
04
b0000000000001101 &
0G
b0000000000001101 "(
b0000000000001101 ";
0"&
0"l
0,
0".
#181
1"S
14
1G
b0000000000001101 2
1"&
1"l
1,
1".
#186
b0000000000001110 "D
0"S
04
b0000000000001110 &
0G
b0000000000001110 "(
b0000000000001110 ";
0"&
0"l
0,
0".
#191
1"S
14
1G
b0000000000001110 2
1"&
1"l
1,
1".
#196
b0000000000001111 "D
0"S
04
b0000000000001111 &
0G
b0000000000001111 "(
b0000000000001111 ";
0"&
0"l
0,
0".
#201
1"S
14
1G
b0000000000001111 2
1"&
1"l
1,
1".
#206
b0000000000010000 "D
0"S
04
b0000000000010000 &
0G
b0000000000010000 "(
b0000000000010000 ";
0"&
0"l
0,
0".
#211
1"S
14
1G
b0000000000010000 2
1"&
1"l
1,
1".
#216
b0000000000010001 "D
0"S
04
b0000000000010001 &
0G
b0000000000010001 "(
b0000000000010001 ";
0"&
0"l
0,
0".
#221
1"S
14
1G
b0000000000010001 2
1"&
1"l
1,
1".
#226
b0000000000010010 "D
0"S
04
b0000000000010010 &
0G
b0000000000010010 "(
b0000000000010010 ";
0"&
0"l
0,
0".
#231
1"S
14
1G
b0000000000010010 2
1"&
1"l
1,
1".
#236
b0000000000010011 "D
0"S
04
b0000000000010011 &
0G
b0000000000010011 "(
b0000000000010011 ";
0"&
0"l
0,
0".
#241
1"S
14
1G
b0000000000010011 2
1"&
1"l
1,
1".
#246
b0000000000010100 "D
0"S
04
b0000000000010100 &
0G
b0000000000010100 "(
b0000000000010100 ";
0"&
0"l
0,
0".
#251
1"S
14
1G
b0000000000010100 2
1"&
1"l
1,
1".
#256
b0000000000010101 "D
0"S
04
b0000000000010101 &
0G
b0000000000010101 "(
b0000000000010101 ";
0"&
0"l
0,
0".
#261
1"S
14
1G
b0000000000010101 2
1"&
1"l
1,
1".
#266
b0000000000010110 "D
0"S
04
b0000000000010110 &
0G
b0000000000010110 "(
b0000000000010110 ";
0"&
0"l
0,
0".
#271
1"S
14
1G
b0000000000010110 2
1"&
1"l
1,
1".
#276
b0000000000010111 "D
0"S
04
b0000000000010111 &
0G
b0000000000010111 "(
b0000000000010111 ";
0"&
0"l
0,
0".
#281
1"S
14
1G
b0000000000010111 2
1"&
1"l
1,
1".
#286
b0000000000011000 "D
0"S
04
b0000000000011000 &
0G
b0000000000011000 "(
b0000000000011000 ";
0"&
0"l
0,
0".
#291
1"S
14
1G
b0000000000011000 2
1"&
1"l
1,
1".
#296
b0000000000011001 "D
0"S
04
b0000000000011001 &
0G
b0000000000011001 "(
b0000000000011001 ";
0"&
0"l
0,
0".
#301
1"S
14
1G
b0000000000011001 2
1"&
1"l
1,
1".
#306
b0000000000011010 "D
0"S
04
b0000000000011010 &
0G
b0000000000011010 "(
b0000000000011010 ";
0"&
0"l
0,
0".
#311
1"S
14
1G
b0000000000011010 2
1"&
1"l
1,
1".
#316
b0000000000011011 "D
0"S
04
b0000000000011011 &
0G
b0000000000011011 "(
b0000000000011011 ";
0"&
0"l
0,
0".
#321
1"S
14
1G
b0000000000011011 2
1"&
1"l
1,
1".
#326
b0000000000011100 "D
0"S
04
b0000000000011100 &
0G
b0000000000011100 "(
b0000000000011100 ";
0"&
0"l
0,
0".
#331
1"S
14
1G
b0000000000011100 2
1"&
1"l
1,
1".
#336
b0000000000011101 "D
0"S
04
b0000000000011101 &
0G
b0000000000011101 "(
b0000000000011101 ";
0"&
0"l
0,
0".
#341
1"S
14
1G
b0000000000011101 2
1"&
1"l
1,
1".
#346
b0000000000011110 "D
0"S
04
b0000000000011110 &
0G
b0000000000011110 "(
b0000000000011110 ";
0"&
0"l
0,
0".
#351
1"S
14
1G
b0000000000011110 2
1"&
1"l
1,
1".
#356
b0000000000011111 "D
0"S
04
b0000000000011111 &
0G
b0000000000011111 "(
b0000000000011111 ";
0"&
0"l
0,
0".
#361
1"S
14
1G
b0000000000011111 2
1"&
1"l
1,
1".
#366
b0000000000100000 "D
0"S
04
b0000000000100000 &
0G
b0000000000100000 "(
b0000000000100000 ";
0"&
0"l
0,
0".
#371
1"S
14
1G
b0000000000100000 2
1"&
1"l
1,
1".
#376
b0000000000100001 "D
0"S
04
b0000000000100001 &
0G
b0000000000100001 "(
b0000000000100001 ";
0"&
0"l
0,
0".
#381
1"S
14
1G
b0000000000100001 2
1"&
1"l
1,
1".
#386
b0000000000100010 "D
0"S
04
b0000000000100010 &
0G
b0000000000100010 "(
b0000000000100010 ";
0"&
0"l
0,
0".
#391
1"S
14
1G
b0000000000100010 2
1"&
1"l
1,
1".
#396
b0000000000100011 "D
0"S
04
b0000000000100011 &
0G
b0000000000100011 "(
b0000000000100011 ";
0"&
0"l
0,
0".
#401
1"S
14
1G
b0000000000100011 2
1"&
1"l
1,
1".
#406
b0000000000100100 "D
0"S
04
b0000000000100100 &
0G
b0000000000100100 "(
b0000000000100100 ";
0"&
0"l
0,
0".
#411
1"S
14
1G
b0000000000100100 2
1"&
1"l
1,
1".
#416
b0000000000100101 "D
0"S
04
b0000000000100101 &
0G
b0000000000100101 "(
b0000000000100101 ";
0"&
0"l
0,
0".
#421
1"S
14
1G
b0000000000100101 2
1"&
1"l
1,
1".
#426
b0000000000100110 "D
0"S
04
b0000000000100110 &
0G
b0000000000100110 "(
b0000000000100110 ";
0"&
0"l
0,
0".
#431
1"S
14
1G
b0000000000100110 2
1"&
1"l
1,
1".
#436
b0000000000100111 "D
0"S
04
b0000000000100111 &
0G
b0000000000100111 "(
b0000000000100111 ";
0"&
0"l
0,
0".
#441
1"S
14
1G
b0000000000100111 2
1"&
1"l
1,
1".
#446
b0000000000101000 "D
0"S
04
b0000000000101000 &
0G
b0000000000101000 "(
b0000000000101000 ";
0"&
0"l
0,
0".
#451
1"S
14
1G
b0000000000101000 2
1"&
1"l
1,
1".
#456
b0000000000101001 "D
0"S
04
b0000000000101001 &
0G
b0000000000101001 "(
b0000000000101001 ";
0"&
0"l
0,
0".
#461
1"S
14
1G
b0000000000101001 2
1"&
1"l
1,
1".
#466
b0000000000101010 "D
0"S
04
b0000000000101010 &
0G
b0000000000101010 "(
b0000000000101010 ";
0"&
0"l
0,
0".
#471
1"S
14
1G
b0000000000101010 2
1"&
1"l
1,
1".
#476
b0000000000101011 "D
0"S
04
b0000000000101011 &
0G
b0000000000101011 "(
b0000000000101011 ";
0"&
0"l
0,
0".
#481
1"S
14
1G
b0000000000101011 2
1"&
1"l
1,
1".
#486
b0000000000101100 "D
0"S
04
b0000000000101100 &
0G
b0000000000101100 "(
b0000000000101100 ";
0"&
0"l
0,
0".
#491
1"S
14
1G
b0000000000101100 2
1"&
1"l
1,
1".
#496
b0000000000101101 "D
0"S
04
b0000000000101101 &
0G
b0000000000101101 "(
b0000000000101101 ";
0"&
0"l
0,
0".
#501
1"S
14
1G
b0000000000101101 2
1"&
1"l
1,
1".
#506
b0000000000101110 "D
0"S
04
b0000000000101110 &
0G
b0000000000101110 "(
b0000000000101110 ";
0"&
0"l
0,
0".
#511
1"S
14
1G
b0000000000101110 2
1"&
1"l
1,
1".
#516
b0000000000101111 "D
0"S
04
b0000000000101111 &
0G
b0000000000101111 "(
b0000000000101111 ";
0"&
0"l
0,
0".
#521
1"S
14
1G
b0000000000101111 2
1"&
1"l
1,
1".
#526
b0000000000110000 "D
0"S
04
b0000000000110000 &
0G
b0000000000110000 "(
b0000000000110000 ";
0"&
0"l
0,
0".
#531
1"S
14
1G
b0000000000110000 2
1"&
1"l
1,
1".
#536
b0000000000110001 "D
0"S
04
b0000000000110001 &
0G
b0000000000110001 "(
b0000000000110001 ";
0"&
0"l
0,
0".
#541
1"S
14
1G
b0000000000110001 2
1"&
1"l
1,
1".
#546
b0000000000110010 "D
0"S
04
b0000000000110010 &
0G
b0000000000110010 "(
b0000000000110010 ";
0"&
0"l
0,
0".
#551
1"S
14
1G
b0000000000110010 2
1"&
1"l
1,
1".
#556
b0000000000110011 "D
0"S
04
b0000000000110011 &
0G
b0000000000110011 "(
b0000000000110011 ";
0"&
0"l
0,
0".
#561
1"S
14
1G
b0000000000110011 2
1"&
1"l
1,
1".
#566
b0000000000110100 "D
0"S
04
b0000000000110100 &
0G
b0000000000110100 "(
b0000000000110100 ";
0"&
0"l
0,
0".
#571
1"S
14
1G
b0000000000110100 2
1"&
1"l
1,
1".
#576
b0000000000110101 "D
0"S
04
b0000000000110101 &
0G
b0000000000110101 "(
b0000000000110101 ";
0"&
0"l
0,
0".
#581
1"S
14
1G
b0000000000110101 2
1"&
1"l
1,
1".
#586
b0000000000110110 "D
0"S
04
b0000000000110110 &
0G
b0000000000110110 "(
b0000000000110110 ";
0"&
0"l
0,
0".
#591
1"S
14
1G
b0000000000110110 2
1"&
1"l
1,
1".
#596
b0000000000110111 "D
0"S
04
b0000000000110111 &
0G
b0000000000110111 "(
b0000000000110111 ";
0"&
0"l
0,
0".
#601
1"S
14
1G
b0000000000110111 2
1"&
1"l
1,
1".
#606
b0000000000111000 "D
0"S
04
b0000000000111000 &
0G
b0000000000111000 "(
b0000000000111000 ";
0"&
0"l
0,
0".
#611
1"S
14
1G
b0000000000111000 2
1"&
1"l
1,
1".
#616
b0000000000111001 "D
0"S
04
b0000000000111001 &
0G
b0000000000111001 "(
b0000000000111001 ";
0"&
0"l
0,
0".
#621
1"S
14
1G
b0000000000111001 2
1"&
1"l
1,
1".
#626
b0000000000111010 "D
0"S
04
b0000000000111010 &
0G
b0000000000111010 "(
b0000000000111010 ";
0"&
0"l
0,
0".
#631
1"S
14
1G
b0000000000111010 2
1"&
1"l
1,
1".
#636
b0000000000111011 "D
0"S
04
b0000000000111011 &
0G
b0000000000111011 "(
b0000000000111011 ";
0"&
0"l
0,
0".
#641
1"S
14
1G
b0000000000111011 2
1"&
1"l
1,
1".
#646
b0000000000111100 "D
0"S
04
b0000000000111100 &
0G
b0000000000111100 "(
b0000000000111100 ";
0"&
0"l
0,
0".
#651
1"S
14
1G
b0000000000111100 2
1"&
1"l
1,
1".
#656
b0000000000111101 "D
0"S
04
b0000000000111101 &
0G
b0000000000111101 "(
b0000000000111101 ";
0"&
0"l
0,
0".
#661
1"S
14
1G
b0000000000111101 2
1"&
1"l
1,
1".
#666
b0000000000111110 "D
0"S
04
b0000000000111110 &
0G
b0000000000111110 "(
b0000000000111110 ";
0"&
0"l
0,
0".
#671
1"S
14
1G
b0000000000111110 2
1"&
1"l
1,
1".
#676
b0000000000111111 "D
0"S
04
b0000000000111111 &
0G
b0000000000111111 "(
b0000000000111111 ";
0"&
0"l
0,
0".
#681
1"S
14
1G
b0000000000111111 2
1"&
1"l
1,
1".
#686
b0000000001000000 "D
0"S
04
b0000000001000000 &
0G
b0000000001000000 "(
b0000000001000000 ";
0"&
0"l
0,
0".
#691
1"S
14
1G
b0000000001000000 2
1"&
1"l
1,
1".
#696
b0000000001000001 "D
0"S
04
b0000000001000001 &
0G
b0000000001000001 "(
b0000000001000001 ";
0"&
0"l
0,
0".
#701
1"S
14
1G
b0000000001000001 2
1"&
1"l
1,
1".
#706
b0000000001000010 "D
0"S
04
b0000000001000010 &
0G
b0000000001000010 "(
b0000000001000010 ";
0"&
0"l
0,
0".
#711
1"S
14
1G
b0000000001000010 2
1"&
1"l
1,
1".
#716
b0000000001000011 "D
0"S
04
b0000000001000011 &
0G
b0000000001000011 "(
b0000000001000011 ";
0"&
0"l
0,
0".
#721
1"S
14
1G
b0000000001000011 2
1"&
1"l
1,
1".
#726
b0000000001000100 "D
0"S
04
b0000000001000100 &
0G
b0000000001000100 "(
b0000000001000100 ";
0"&
0"l
0,
0".
#731
1"S
14
1G
b0000000001000100 2
1"&
1"l
1,
1".
#736
b0000000001000101 "D
0"S
04
b0000000001000101 &
0G
b0000000001000101 "(
b0000000001000101 ";
0"&
0"l
0,
0".
#741
1"S
14
1G
b0000000001000101 2
1"&
1"l
1,
1".
#746
b0000000001000110 "D
0"S
04
b0000000001000110 &
0G
b0000000001000110 "(
b0000000001000110 ";
0"&
0"l
0,
0".
#751
1"S
14
1G
b0000000001000110 2
1"&
1"l
1,
1".
#756
b0000000001000111 "D
0"S
04
b0000000001000111 &
0G
b0000000001000111 "(
b0000000001000111 ";
0"&
0"l
0,
0".
#761
1"S
14
1G
b0000000001000111 2
1"&
1"l
1,
1".
#766
b0000000001001000 "D
0"S
04
b0000000001001000 &
0G
b0000000001001000 "(
b0000000001001000 ";
0"&
0"l
0,
0".
#771
1"S
14
1G
b0000000001001000 2
1"&
1"l
1,
1".
#776
b0000000001001001 "D
0"S
04
b0000000001001001 &
0G
b0000000001001001 "(
b0000000001001001 ";
0"&
0"l
0,
0".
#781
1"S
14
1G
b0000000001001001 2
1"&
1"l
1,
1".
#786
b0000000001001010 "D
0"S
04
b0000000001001010 &
0G
b0000000001001010 "(
b0000000001001010 ";
0"&
0"l
0,
0".
#791
1"S
14
1G
b0000000001001010 2
1"&
1"l
1,
1".
#796
b0000000001001011 "D
0"S
04
b0000000001001011 &
0G
b0000000001001011 "(
b0000000001001011 ";
0"&
0"l
0,
0".
#801
1"S
14
1G
b0000000001001011 2
1"&
1"l
1,
1".
#806
b0000000001001100 "D
0"S
04
b0000000001001100 &
0G
b0000000001001100 "(
b0000000001001100 ";
0"&
0"l
0,
0".
#811
1"S
14
1G
b0000000001001100 2
1"&
1"l
1,
1".
#816
b0000000001001101 "D
0"S
04
b0000000001001101 &
0G
b0000000001001101 "(
b0000000001001101 ";
0"&
0"l
0,
0".
#821
1"S
14
1G
b0000000001001101 2
1"&
1"l
1,
1".
#826
b0000000001001110 "D
0"S
04
b0000000001001110 &
0G
b0000000001001110 "(
b0000000001001110 ";
0"&
0"l
0,
0".
#831
1"S
14
1G
b0000000001001110 2
1"&
1"l
1,
1".
#836
b0000000001001111 "D
0"S
04
b0000000001001111 &
0G
b0000000001001111 "(
b0000000001001111 ";
0"&
0"l
0,
0".
#841
1"S
14
1G
b0000000001001111 2
1"&
1"l
1,
1".
#846
b0000000001010000 "D
0"S
04
b0000000001010000 &
0G
b0000000001010000 "(
b0000000001010000 ";
0"&
0"l
0,
0".
#851
1"S
14
1G
b0000000001010000 2
1"&
1"l
1,
1".
#856
b0000000001010001 "D
0"S
04
b0000000001010001 &
0G
b0000000001010001 "(
b0000000001010001 ";
0"&
0"l
0,
0".
#861
1"S
14
1G
b0000000001010001 2
1"&
1"l
1,
1".
#866
b0000000001010010 "D
0"S
04
b0000000001010010 &
0G
b0000000001010010 "(
b0000000001010010 ";
0"&
0"l
0,
0".
#871
1"S
14
1G
b0000000001010010 2
1"&
1"l
1,
1".
#876
b0000000001010011 "D
0"S
04
b0000000001010011 &
0G
b0000000001010011 "(
b0000000001010011 ";
0"&
0"l
0,
0".
#881
1"S
14
1G
b0000000001010011 2
1"&
1"l
1,
1".
#886
b0000000001010100 "D
0"S
04
b0000000001010100 &
0G
b0000000001010100 "(
b0000000001010100 ";
0"&
0"l
0,
0".
#891
1"S
14
1G
b0000000001010100 2
1"&
1"l
1,
1".
