codeA3/generated/SystemTop.vcd
$date
2024-11-20T14:06+0000
$end
$version
0.2
$end
$comment

$end
$timescale 1ns  $end
$scope module SystemTop $end
 $var wire 32 " io_testerDataMemDataRead $end
 $var wire 1 ( io_testerDataMemWriteEnable $end
 $var wire 32 6 io_testerDataMemDataWrite $end
 $var wire 1 7 io_start $end
 $var wire 1 ; io_testerDataMemEnable $end
 $var wire 1 A clock $end
 $var wire 16 F io_testerDataMemAddress $end
 $var wire 1 G dataMemory $end
 $var wire 1 H accelerator $end
 $var wire 1 K io_done $end
 $var wire 1 V reset $end
  $scope module dataMemory $end
   $var wire 32 ! _GEN_11 $end
   $var wire 32 $ io_testerDataWrite $end
   $var wire 1 ' clock $end
   $var wire 1 ) io_testerEnable $end
   $var wire 32 0 io_dataRead $end
   $var wire 32 1 io_dataWrite $end
   $var wire 1 9 io_testerWriteEnable $end
   $var wire 32 : _GEN_5 $end
   $var wire 16 J io_testerAddress $end
   $var wire 32 M memory $end
   $var wire 32 S io_testerDataRead $end
    $scope module memory $end
      $scope module _T_1 $end
       $var wire 16 # addr $end
       $var wire 16 & pipeline_addr_0 $end
       $var wire 1 * en $end
       $var wire 32 5 data $end
       $var wire 32 = pipeline_data_0 $end
       $var wire 1 I pipeline_valid_0 $end
       $var wire 1 O valid $end
       $var wire 1 T mask $end
       $var wire 1 W clk $end
      $upscope $end
      $scope module _T $end
       $var wire 1 % clk $end
       $var wire 16 ? addr $end
       $var wire 1 @ en $end
       $var wire 32 U data $end
      $upscope $end
      $scope module _T_3 $end
       $var wire 1 + pipeline_valid_0 $end
       $var wire 1 , en $end
       $var wire 1 - mask $end
       $var wire 16 . pipeline_addr_0 $end
       $var wire 16 8 addr $end
       $var wire 1 > clk $end
       $var wire 32 E pipeline_data_0 $end
       $var wire 32 N data $end
       $var wire 1 X valid $end
      $upscope $end
      $scope module _T_2 $end
       $var wire 1 / clk $end
       $var wire 16 2 addr $end
       $var wire 32 < data $end
       $var wire 1 C en $end
      $upscope $end
    $upscope $end
  $upscope $end
  $scope module accelerator $end
   $var wire 16 3 reg2 $end
   $var wire 1 4 reset $end
   $var wire 1 B io_done $end
   $var wire 16 D reg1 $end
   $var wire 32 L io_dataWrite $end
   $var wire 1 P clock $end
   $var wire 1 Q io_start $end
   $var wire 32 R io_dataRead $end
  $upscope $end
$upscope $end
$enddefinitions $end
$dumpvars
0%
0X
0C
b00000000000000000000000000000000 <
0;
b00000000000000000000000000000000 =
0'
b00000000000000000000000000000000 S
b00000000000000000000000000000000 !
b0000000000000000 .
0>
b0000000000000000 &
b00000000000000000000000000000000 "
b0000000000000000 D
b00000000000000000000000000000000 U
07
b00000000000000000000000000000000 N
0V
09
b00000000000000000000000000000000 :
b0000000000000000 ?
0O
0P
b0000000000000000 8
b0000000000000000 #
0Q
b00000000000000000000000000000000 R
0I
04
b00000000000000000000000000000000 5
b00000000000000000000000000000000 6
0K
b00000000000000000000000000000000 L
b0000000000000000 3
b00000000000000000000000000000000 M
1-
b00000000000000000000000000000000 E
0/
b00000000000000000000000000000000 0
b0000000000000000 J
b00000000000000000000000000000000 1
0(
0)
0G
0*
0H
0@
0+
1T
b00000000000000000000000000000000 $
b0000000000000000 F
0A
0,
0W
b0000000000000000 2
0B
$end
#0
14
1C
1V
#1
1%
1'
1W
1A
1P
1>
1/
#6
0%
0'
0W
0A
0P
0>
0/
#11
1%
1'
1W
1A
1P
1>
1/
#16
0%
0'
0W
0A
0P
0>
0/
#21
1%
1'
1W
1A
1P
1>
1/
#26
0%
0'
0W
0A
0P
0>
0/
#31
1%
1'
1W
1A
1P
1>
1/
#36
0%
0'
0W
0A
0P
0>
0/
#41
1%
1'
1W
1A
1P
1>
1/
#46
0%
04
0C
0'
1(
0/
0>
1)
1@
0V
1*
19
0W
1O
0A
0P
1;
#51
1%
1'
1W
1I
1A
1P
1>
1/
#56
b0000000000000001 ?
0%
b0000000000000001 F
b0000000000000001 J
b0000000000000001 #
0'
0W
0A
0P
0>
0/
#61
1%
b0000000000000001 &
1'
1W
1A
1P
1>
1/
#66
b0000000000000010 ?
0%
b0000000000000010 F
b0000000000000010 J
b0000000000000010 #
0'
0W
0A
0P
0>
0/
#71
1%
b0000000000000010 &
1'
1W
1A
1P
1>
1/
#76
b0000000000000011 ?
0%
b0000000000000011 F
b0000000000000011 J
b0000000000000011 #
0'
0W
0A
0P
0>
0/
#81
1%
b0000000000000011 &
1'
1W
1A
1P
1>
1/
#86
b0000000000000100 ?
0%
b0000000000000100 F
b0000000000000100 J
b0000000000000100 #
0'
0W
0A
0P
0>
0/
#91
1%
b0000000000000100 &
1'
1W
1A
1P
1>
1/
#96
b0000000000000101 ?
0%
b0000000000000101 F
b0000000000000101 J
b0000000000000101 #
0'
0W
0A
0P
0>
0/
#101
1%
b0000000000000101 &
1'
1W
1A
1P
1>
1/
#106
b0000000000000110 ?
0%
b0000000000000110 F
b0000000000000110 J
b0000000000000110 #
0'
0W
0A
0P
0>
0/
#111
1%
b0000000000000110 &
1'
1W
1A
1P
1>
1/
#116
b0000000000000111 ?
0%
b0000000000000111 F
b0000000000000111 J
b0000000000000111 #
0'
0W
0A
0P
0>
0/
#121
1%
b0000000000000111 &
1'
1W
1A
1P
1>
1/
#126
b0000000000001000 ?
0%
b0000000000001000 F
b0000000000001000 J
b0000000000001000 #
0'
0W
0A
0P
0>
0/
#131
1%
b0000000000001000 &
1'
1W
1A
1P
1>
1/
#136
b0000000000001001 ?
0%
b0000000000001001 F
b0000000000001001 J
b0000000000001001 #
0'
0W
0A
0P
0>
0/
#141
1%
b0000000000001001 &
1'
1W
1A
1P
1>
1/
#146
b0000000000001010 ?
0%
b0000000000001010 F
b0000000000001010 J
b0000000000001010 #
0'
0W
0A
0P
0>
0/
#151
1%
b0000000000001010 &
1'
1W
1A
1P
1>
1/
#156
b0000000000001011 ?
0%
b0000000000001011 F
b0000000000001011 J
b0000000000001011 #
0'
0W
0A
0P
0>
0/
#161
1%
b0000000000001011 &
1'
1W
1A
1P
1>
1/
#166
b0000000000001100 ?
0%
b0000000000001100 F
b0000000000001100 J
b0000000000001100 #
0'
0W
0A
0P
0>
0/
#171
1%
b0000000000001100 &
1'
1W
1A
1P
1>
1/
#176
b0000000000001101 ?
0%
b0000000000001101 F
b0000000000001101 J
b0000000000001101 #
0'
0W
0A
0P
0>
0/
#181
1%
b0000000000001101 &
1'
1W
1A
1P
1>
1/
#186
b0000000000001110 ?
0%
b0000000000001110 F
b0000000000001110 J
b0000000000001110 #
0'
0W
0A
0P
0>
0/
#191
1%
b0000000000001110 &
1'
1W
1A
1P
1>
1/
#196
b0000000000001111 ?
0%
b0000000000001111 F
b0000000000001111 J
b0000000000001111 #
0'
0W
0A
0P
0>
0/
#201
1%
b0000000000001111 &
1'
1W
1A
1P
1>
1/
#206
b0000000000010000 ?
0%
b0000000000010000 F
b0000000000010000 J
b0000000000010000 #
0'
0W
0A
0P
0>
0/
#211
1%
b0000000000010000 &
1'
1W
1A
1P
1>
1/
#216
b0000000000010001 ?
0%
b0000000000010001 F
b0000000000010001 J
b0000000000010001 #
0'
0W
0A
0P
0>
0/
#221
1%
b0000000000010001 &
1'
1W
1A
1P
1>
1/
#226
b0000000000010010 ?
0%
b0000000000010010 F
b0000000000010010 J
b0000000000010010 #
0'
0W
0A
0P
0>
0/
#231
1%
b0000000000010010 &
1'
1W
1A
1P
1>
1/
#236
b0000000000010011 ?
0%
b0000000000010011 F
b0000000000010011 J
b0000000000010011 #
0'
0W
0A
0P
0>
0/
#241
1%
b0000000000010011 &
1'
1W
1A
1P
1>
1/
#246
b0000000000010100 ?
0%
b0000000000010100 F
b0000000000010100 J
b0000000000010100 #
0'
0W
0A
0P
0>
0/
#251
1%
b0000000000010100 &
1'
1W
1A
1P
1>
1/
#256
b0000000000010101 ?
0%
b0000000000010101 F
b0000000000010101 J
b0000000000010101 #
0'
0W
0A
0P
0>
0/
#261
1%
b0000000000010101 &
1'
1W
1A
1P
1>
1/
#266
b0000000000010110 ?
0%
b0000000000010110 F
b0000000000010110 J
b0000000000010110 #
0'
0W
0A
0P
0>
0/
#271
1%
b0000000000010110 &
1'
1W
1A
1P
1>
1/
#276
b0000000000010111 ?
0%
b0000000000010111 F
b0000000000010111 J
b0000000000010111 #
0'
0W
0A
0P
0>
0/
#281
1%
b0000000000010111 &
1'
1W
1A
1P
1>
1/
#286
b0000000000011000 ?
0%
b0000000000011000 F
b0000000000011000 J
b0000000000011000 #
0'
0W
0A
0P
0>
0/
#291
1%
b0000000000011000 &
1'
1W
1A
1P
1>
1/
#296
b0000000000011001 ?
0%
b0000000000011001 F
b0000000000011001 J
b0000000000011001 #
0'
0W
0A
0P
0>
0/
#301
1%
b0000000000011001 &
1'
1W
1A
1P
1>
1/
#306
b0000000000011010 ?
0%
b0000000000011010 F
b0000000000011010 J
b0000000000011010 #
0'
0W
0A
0P
0>
0/
#311
1%
b0000000000011010 &
1'
1W
1A
1P
1>
1/
#316
b0000000000011011 ?
0%
b0000000000011011 F
b0000000000011011 J
b0000000000011011 #
0'
0W
0A
0P
0>
0/
#321
1%
b0000000000011011 &
1'
1W
1A
1P
1>
1/
#326
b0000000000011100 ?
0%
b0000000000011100 F
b0000000000011100 J
b0000000000011100 #
0'
0W
0A
0P
0>
0/
#331
1%
b0000000000011100 &
1'
1W
1A
1P
1>
1/
#336
b0000000000011101 ?
0%
b0000000000011101 F
b0000000000011101 J
b0000000000011101 #
0'
0W
0A
0P
0>
0/
#341
1%
b0000000000011101 &
1'
1W
1A
1P
1>
1/
#346
b0000000000011110 ?
0%
b0000000000011110 F
b0000000000011110 J
b0000000000011110 #
0'
0W
0A
0P
0>
0/
#351
1%
b0000000000011110 &
1'
1W
1A
1P
1>
1/
#356
b0000000000011111 ?
0%
b0000000000011111 F
b0000000000011111 J
b0000000000011111 #
0'
0W
0A
0P
0>
0/
#361
1%
b0000000000011111 &
1'
1W
1A
1P
1>
1/
#366
b0000000000100000 ?
0%
b0000000000100000 F
b0000000000100000 J
b0000000000100000 #
0'
0W
0A
0P
0>
0/
#371
1%
b0000000000100000 &
1'
1W
1A
1P
1>
1/
#376
b0000000000100001 ?
0%
b0000000000100001 F
b0000000000100001 J
b0000000000100001 #
0'
0W
0A
0P
0>
0/
#381
1%
b0000000000100001 &
1'
1W
1A
1P
1>
1/
#386
b0000000000100010 ?
0%
b0000000000100010 F
b0000000000100010 J
b0000000000100010 #
0'
0W
0A
0P
0>
0/
#391
1%
b0000000000100010 &
1'
1W
1A
1P
1>
1/
#396
b0000000000100011 ?
0%
b0000000000100011 F
b0000000000100011 J
b0000000000100011 #
0'
0W
0A
0P
0>
0/
#401
1%
b0000000000100011 &
1'
1W
1A
1P
1>
1/
#406
b0000000000100100 ?
0%
b0000000000100100 F
b0000000000100100 J
b0000000000100100 #
0'
0W
0A
0P
0>
0/
#411
1%
b0000000000100100 &
1'
1W
1A
1P
1>
1/
#416
b0000000000100101 ?
0%
b0000000000100101 F
b0000000000100101 J
b0000000000100101 #
0'
0W
0A
0P
0>
0/
#421
1%
b0000000000100101 &
1'
1W
1A
1P
1>
1/
#426
b0000000000100110 ?
0%
b0000000000100110 F
b0000000000100110 J
b0000000000100110 #
0'
0W
0A
0P
0>
0/
#431
1%
b0000000000100110 &
1'
1W
1A
1P
1>
1/
#436
b0000000000100111 ?
0%
b0000000000100111 F
b0000000000100111 J
b0000000000100111 #
0'
0W
0A
0P
0>
0/
#441
1%
b0000000000100111 &
1'
1W
1A
1P
1>
1/
#446
b0000000000101000 ?
0%
b0000000000101000 F
b0000000000101000 J
b0000000000101000 #
0'
0W
0A
0P
0>
0/
#451
1%
b0000000000101000 &
1'
1W
1A
1P
1>
1/
#456
b0000000000101001 ?
0%
b0000000000101001 F
b0000000000101001 J
b0000000000101001 #
0'
0W
0A
0P
0>
0/
#461
1%
b0000000000101001 &
1'
1W
1A
1P
1>
1/
#466
b0000000000101010 ?
0%
b0000000000101010 F
b0000000000101010 J
b0000000000101010 #
0'
0W
0A
0P
0>
0/
#471
1%
b0000000000101010 &
1'
1W
1A
1P
1>
1/
#476
b0000000000101011 ?
0%
b0000000000101011 F
b0000000000101011 J
b0000000000101011 #
0'
0W
0A
0P
0>
0/
#481
1%
b0000000000101011 &
1'
1W
1A
1P
1>
1/
#486
b0000000000101100 ?
0%
b0000000000101100 F
b0000000000101100 J
b0000000000101100 #
0'
0W
0A
0P
0>
0/
#491
1%
b0000000000101100 &
1'
1W
1A
1P
1>
1/
#496
b0000000000101101 ?
0%
b0000000000101101 F
b0000000000101101 J
b0000000000101101 #
0'
0W
0A
0P
0>
0/
#501
1%
b0000000000101101 &
1'
1W
1A
1P
1>
1/
#506
b0000000000101110 ?
0%
b0000000000101110 F
b0000000000101110 J
b0000000000101110 #
0'
0W
0A
0P
0>
0/
#511
1%
b0000000000101110 &
1'
1W
1A
1P
1>
1/
#516
b0000000000101111 ?
0%
b0000000000101111 F
b0000000000101111 J
b0000000000101111 #
0'
0W
0A
0P
0>
0/
#521
1%
b0000000000101111 &
1'
1W
1A
1P
1>
1/
#526
b0000000000110000 ?
0%
b0000000000110000 F
b0000000000110000 J
b0000000000110000 #
0'
0W
0A
0P
0>
0/
#531
1%
b0000000000110000 &
1'
1W
1A
1P
1>
1/
#536
b0000000000110001 ?
0%
b0000000000110001 F
b0000000000110001 J
b0000000000110001 #
0'
0W
0A
0P
0>
0/
#541
1%
b0000000000110001 &
1'
1W
1A
1P
1>
1/
#546
b0000000000110010 ?
0%
b0000000000110010 F
b0000000000110010 J
b0000000000110010 #
0'
0W
0A
0P
0>
0/
#551
1%
b0000000000110010 &
1'
1W
1A
1P
1>
1/
#556
b0000000000110011 ?
0%
b0000000000110011 F
b0000000000110011 J
b0000000000110011 #
0'
0W
0A
0P
0>
0/
#561
1%
b0000000000110011 &
1'
1W
1A
1P
1>
1/
#566
b0000000000110100 ?
0%
b0000000000110100 F
b0000000000110100 J
b0000000000110100 #
0'
0W
0A
0P
0>
0/
#571
1%
b0000000000110100 &
1'
1W
1A
1P
1>
1/
#576
b0000000000110101 ?
0%
b0000000000110101 F
b0000000000110101 J
b0000000000110101 #
0'
0W
0A
0P
0>
0/
#581
1%
b0000000000110101 &
1'
1W
1A
1P
1>
1/
#586
b0000000000110110 ?
0%
b0000000000110110 F
b0000000000110110 J
b0000000000110110 #
0'
0W
0A
0P
0>
0/
#591
1%
b0000000000110110 &
1'
1W
1A
1P
1>
1/
#596
b0000000000110111 ?
0%
b0000000000110111 F
b0000000000110111 J
b0000000000110111 #
0'
0W
0A
0P
0>
0/
#601
1%
b0000000000110111 &
1'
1W
1A
1P
1>
1/
#606
b0000000000111000 ?
0%
b0000000000111000 F
b0000000000111000 J
b0000000000111000 #
0'
0W
0A
0P
0>
0/
#611
1%
b0000000000111000 &
1'
1W
1A
1P
1>
1/
#616
b0000000000111001 ?
0%
b0000000000111001 F
b0000000000111001 J
b0000000000111001 #
0'
0W
0A
0P
0>
0/
#621
1%
b0000000000111001 &
1'
1W
1A
1P
1>
1/
#626
b0000000000111010 ?
0%
b0000000000111010 F
b0000000000111010 J
b0000000000111010 #
0'
0W
0A
0P
0>
0/
#631
1%
b0000000000111010 &
1'
1W
1A
1P
1>
1/
#636
b0000000000111011 ?
0%
b0000000000111011 F
b0000000000111011 J
b0000000000111011 #
0'
0W
0A
0P
0>
0/
#641
1%
b0000000000111011 &
1'
1W
1A
1P
1>
1/
#646
b0000000000111100 ?
0%
b0000000000111100 F
b0000000000111100 J
b0000000000111100 #
0'
0W
0A
0P
0>
0/
#651
1%
b0000000000111100 &
1'
1W
1A
1P
1>
1/
#656
b0000000000111101 ?
0%
b0000000000111101 F
b0000000000111101 J
b0000000000111101 #
0'
0W
0A
0P
0>
0/
#661
1%
b0000000000111101 &
1'
1W
1A
1P
1>
1/
#666
b0000000000111110 ?
0%
b0000000000111110 F
b0000000000111110 J
b0000000000111110 #
0'
0W
0A
0P
0>
0/
#671
1%
b0000000000111110 &
1'
1W
1A
1P
1>
1/
#676
b0000000000111111 ?
0%
b0000000000111111 F
b0000000000111111 J
b0000000000111111 #
0'
0W
0A
0P
0>
0/
#681
1%
b0000000000111111 &
1'
1W
1A
1P
1>
1/
#686
b0000000001000000 ?
0%
b0000000001000000 F
b0000000001000000 J
b0000000001000000 #
0'
0W
0A
0P
0>
0/
#691
1%
b0000000001000000 &
1'
1W
1A
1P
1>
1/
#696
b0000000001000001 ?
0%
b0000000001000001 F
b0000000001000001 J
b0000000001000001 #
0'
0W
0A
0P
0>
0/
#701
1%
b0000000001000001 &
1'
1W
1A
1P
1>
1/
#706
b0000000001000010 ?
0%
b0000000001000010 F
b0000000001000010 J
b0000000001000010 #
0'
0W
0A
0P
0>
0/
#711
1%
b0000000001000010 &
1'
1W
1A
1P
1>
1/
#716
b0000000001000011 ?
0%
b0000000001000011 F
b0000000001000011 J
b0000000001000011 #
0'
0W
0A
0P
0>
0/
#721
1%
b0000000001000011 &
1'
1W
1A
1P
1>
1/
#726
b0000000001000100 ?
0%
b0000000001000100 F
b0000000001000100 J
b0000000001000100 #
0'
0W
0A
0P
0>
0/
#731
1%
b0000000001000100 &
1'
1W
1A
1P
1>
1/
#736
b0000000001000101 ?
0%
b0000000001000101 F
b0000000001000101 J
b0000000001000101 #
0'
0W
0A
0P
0>
0/
#741
1%
b0000000001000101 &
1'
1W
1A
1P
1>
1/
#746
b0000000001000110 ?
0%
b0000000001000110 F
b0000000001000110 J
b0000000001000110 #
0'
0W
0A
0P
0>
0/
#751
1%
b0000000001000110 &
1'
1W
1A
1P
1>
1/
#756
b0000000001000111 ?
0%
b0000000001000111 F
b0000000001000111 J
b0000000001000111 #
0'
0W
0A
0P
0>
0/
#761
1%
b0000000001000111 &
1'
1W
1A
1P
1>
1/
#766
b0000000001001000 ?
0%
b0000000001001000 F
b0000000001001000 J
b0000000001001000 #
0'
0W
0A
0P
0>
0/
#771
1%
b0000000001001000 &
1'
1W
1A
1P
1>
1/
#776
b0000000001001001 ?
0%
b0000000001001001 F
b0000000001001001 J
b0000000001001001 #
0'
0W
0A
0P
0>
0/
#781
1%
b0000000001001001 &
1'
1W
1A
1P
1>
1/
#786
b0000000001001010 ?
0%
b0000000001001010 F
b0000000001001010 J
b0000000001001010 #
0'
0W
0A
0P
0>
0/
#791
1%
b0000000001001010 &
1'
1W
1A
1P
1>
1/
#796
b0000000001001011 ?
0%
b0000000001001011 F
b0000000001001011 J
b0000000001001011 #
0'
0W
0A
0P
0>
0/
#801
1%
b0000000001001011 &
1'
1W
1A
1P
1>
1/
#806
b0000000001001100 ?
0%
b0000000001001100 F
b0000000001001100 J
b0000000001001100 #
0'
0W
0A
0P
0>
0/
#811
1%
b0000000001001100 &
1'
1W
1A
1P
1>
1/
#816
b0000000001001101 ?
0%
b0000000001001101 F
b0000000001001101 J
b0000000001001101 #
0'
0W
0A
0P
0>
0/
#821
1%
b0000000001001101 &
1'
1W
1A
1P
1>
1/
#826
b0000000001001110 ?
0%
b0000000001001110 F
b0000000001001110 J
b0000000001001110 #
0'
0W
0A
0P
0>
0/
#831
1%
b0000000001001110 &
1'
1W
1A
1P
1>
1/
#836
b0000000001001111 ?
0%
b0000000001001111 F
b0000000001001111 J
b0000000001001111 #
0'
0W
0A
0P
0>
0/
#841
1%
b0000000001001111 &
1'
1W
1A
1P
1>
1/
#846
b0000000001010000 ?
0%
b0000000001010000 F
b0000000001010000 J
b0000000001010000 #
0'
0W
0A
0P
0>
0/
#851
1%
b0000000001010000 &
1'
1W
1A
1P
1>
1/
#856
b0000000001010001 ?
0%
b0000000001010001 F
b0000000001010001 J
b0000000001010001 #
0'
0W
0A
0P
0>
0/
#861
1%
b0000000001010001 &
1'
1W
1A
1P
1>
1/
#866
b0000000001010010 ?
0%
b0000000001010010 F
b0000000001010010 J
b0000000001010010 #
0'
0W
0A
0P
0>
0/
#871
1%
b0000000001010010 &
1'
1W
1A
1P
1>
1/
#876
b0000000001010011 ?
0%
b0000000001010011 F
b0000000001010011 J
b0000000001010011 #
0'
0W
0A
0P
0>
0/
#881
1%
b0000000001010011 &
1'
1W
1A
1P
1>
1/
#886
b0000000001010100 ?
0%
b0000000001010100 F
b0000000001010100 J
b0000000001010100 #
0'
0W
0A
0P
0>
0/
#891
1%
b0000000001010100 &
1'
1W
1A
1P
1>
1/
#896
b0000000001010101 ?
0%
b0000000001010101 F
b0000000001010101 J
b0000000001010101 #
0'
0W
0A
0P
0>
0/
#901
1%
b0000000001010101 &
1'
1W
1A
1P
1>
1/
#906
b0000000001010110 ?
0%
b0000000001010110 F
b0000000001010110 J
b0000000001010110 #
0'
0W
0A
0P
0>
0/
#911
1%
b0000000001010110 &
1'
1W
1A
1P
1>
1/
#916
b0000000001010111 ?
0%
b0000000001010111 F
b0000000001010111 J
b0000000001010111 #
0'
0W
0A
0P
0>
0/
#921
1%
b0000000001010111 &
1'
1W
1A
1P
1>
1/
#926
b0000000001011000 ?
0%
b0000000001011000 F
b0000000001011000 J
b0000000001011000 #
0'
0W
0A
0P
0>
0/
#931
1%
b0000000001011000 &
1'
1W
1A
1P
1>
1/
#936
b0000000001011001 ?
0%
b0000000001011001 F
b0000000001011001 J
b0000000001011001 #
0'
0W
0A
0P
0>
0/
#941
1%
b0000000001011001 &
1'
1W
1A
1P
1>
1/
#946
b0000000001011010 ?
0%
b0000000001011010 F
b0000000001011010 J
b0000000001011010 #
0'
0W
0A
0P
0>
0/
#951
1%
b0000000001011010 &
1'
1W
1A
1P
1>
1/
#956
b0000000001011011 ?
0%
b0000000001011011 F
b0000000001011011 J
b0000000001011011 #
0'
0W
0A
0P
0>
0/
#961
1%
b0000000001011011 &
1'
1W
1A
1P
1>
1/
#966
b0000000001011100 ?
0%
b0000000001011100 F
b0000000001011100 J
b0000000001011100 #
0'
0W
0A
0P
0>
0/
#971
1%
b0000000001011100 &
1'
1W
1A
1P
1>
1/
#976
b0000000001011101 ?
0%
b0000000001011101 F
b0000000001011101 J
b0000000001011101 #
0'
0W
0A
0P
0>
0/
#981
1%
b0000000001011101 &
1'
1W
1A
1P
1>
1/
#986
b0000000001011110 ?
0%
b0000000001011110 F
b0000000001011110 J
b0000000001011110 #
0'
0W
0A
0P
0>
0/
#991
1%
b0000000001011110 &
1'
1W
1A
1P
1>
1/
#996
0%
b0000000001011111 J
b00000000000000000000000011111111 5
b00000000000000000000000011111111 S
0'
b00000000000000000000000011111111 6
0/
0>
b0000000001011111 ?
b0000000001011111 F
b00000000000000000000000011111111 "
b0000000001011111 #
b00000000000000000000000011111111 $
0W
b00000000000000000000000011111111 :
0A
0P
#1001
1%
b00000000000000000000000011111111 U
b0000000001011111 &
1'
1W
b00000000000000000000000011111111 =
1A
1P
1>
1/
#1006
0%
b0000000001100000 J
b00000000000000000000000000000000 5
b00000000000000000000000000000000 S
0'
b00000000000000000000000000000000 6
0/
0>
b0000000001100000 ?
b0000000001100000 F
b00000000000000000000000000000000 U
b00000000000000000000000000000000 "
b0000000001100000 #
b00000000000000000000000000000000 $
0W
b00000000000000000000000000000000 :
0A
0P
#1011
1%
b0000000001100000 &
1'
1W
b00000000000000000000000000000000 =
1A
1P
1>
1/
#1016
b0000000001100001 ?
0%
b0000000001100001 F
b0000000001100001 J
b0000000001100001 #
0'
0W
0A
0P
0>
0/
#1021
1%
b0000000001100001 &
1'
1W
1A
1P
1>
1/
#1026
b0000000001100010 ?
0%
b0000000001100010 F
b0000000001100010 J
b0000000001100010 #
0'
0W
0A
0P
0>
0/
#1031
1%
b0000000001100010 &
1'
1W
1A
1P
1>
1/
#1036
b0000000001100011 ?
0%
b0000000001100011 F
b0000000001100011 J
b0000000001100011 #
0'
0W
0A
0P
0>
0/
#1041
1%
b0000000001100011 &
1'
1W
1A
1P
1>
1/
#1046
b0000000001100100 ?
0%
b0000000001100100 F
b0000000001100100 J
b0000000001100100 #
0'
0W
0A
0P
0>
0/
#1051
1%
b0000000001100100 &
1'
1W
1A
1P
1>
1/
#1056
b0000000001100101 ?
0%
b0000000001100101 F
b0000000001100101 J
b0000000001100101 #
0'
0W
0A
0P
0>
0/
#1061
1%
b0000000001100101 &
1'
1W
1A
1P
1>
1/
#1066
b0000000001100110 ?
0%
b0000000001100110 F
b0000000001100110 J
b0000000001100110 #
0'
0W
0A
0P
0>
0/
#1071
1%
b0000000001100110 &
1'
1W
1A
1P
1>
1/
#1076
b0000000001100111 ?
0%
b0000000001100111 F
b0000000001100111 J
b0000000001100111 #
0'
0W
0A
0P
0>
0/
#1081
1%
b0000000001100111 &
1'
1W
1A
1P
1>
1/
#1086
0%
b0000000001101000 J
b00000000000000000000000011111111 5
b00000000000000000000000011111111 S
0'
b00000000000000000000000011111111 6
0/
0>
b0000000001101000 ?
b0000000001101000 F
b00000000000000000000000011111111 "
b0000000001101000 #
b00000000000000000000000011111111 $
0W
b00000000000000000000000011111111 :
0A
0P
#1091
1%
b00000000000000000000000011111111 U
b0000000001101000 &
1'
1W
b00000000000000000000000011111111 =
1A
1P
1>
1/
#1096
0%
b0000000001101001 J
b00000000000000000000000000000000 5
b00000000000000000000000000000000 S
0'
b00000000000000000000000000000000 6
0/
0>
b0000000001101001 ?
b0000000001101001 F
b00000000000000000000000000000000 U
b00000000000000000000000000000000 "
b0000000001101001 #
b00000000000000000000000000000000 $
0W
b00000000000000000000000000000000 :
0A
0P
#1101
1%
b0000000001101001 &
1'
1W
b00000000000000000000000000000000 =
1A
1P
1>
1/
#1106
b0000000001101010 ?
0%
b0000000001101010 F
b0000000001101010 J
b0000000001101010 #
0'
0W
0A
0P
0>
0/
#1111
1%
b0000000001101010 &
1'
1W
1A
1P
1>
1/
#1116
b0000000001101011 ?
0%
b0000000001101011 F
b0000000001101011 J
b0000000001101011 #
0'
0W
0A
0P
0>
0/
#1121
1%
b0000000001101011 &
1'
1W
1A
1P
1>
1/
#1126
b0000000001101100 ?
0%
b0000000001101100 F
b0000000001101100 J
b0000000001101100 #
0'
0W
0A
0P
0>
0/
#1131
1%
b0000000001101100 &
1'
1W
1A
1P
1>
1/
#1136
b0000000001101101 ?
0%
b0000000001101101 F
b0000000001101101 J
b0000000001101101 #
0'
0W
0A
0P
0>
0/
#1141
1%
b0000000001101101 &
1'
1W
1A
1P
1>
1/
#1146
b0000000001101110 ?
0%
b0000000001101110 F
b0000000001101110 J
b0000000001101110 #
0'
0W
0A
0P
0>
0/
#1151
1%
b0000000001101110 &
1'
1W
1A
1P
1>
1/
#1156
b0000000001101111 ?
0%
b0000000001101111 F
b0000000001101111 J
b0000000001101111 #
0'
0W
0A
0P
0>
0/
#1161
1%
b0000000001101111 &
1'
1W
1A
1P
1>
1/
#1166
b0000000001110000 ?
0%
b0000000001110000 F
b0000000001110000 J
b0000000001110000 #
0'
0W
0A
0P
0>
0/
#1171
1%
b0000000001110000 &
1'
1W
1A
1P
1>
1/
#1176
b0000000001110001 ?
0%
b0000000001110001 F
b0000000001110001 J
b0000000001110001 #
0'
0W
0A
0P
0>
0/
#1181
1%
b0000000001110001 &
1'
1W
1A
1P
1>
1/
#1186
0%
b0000000001110010 J
b00000000000000000000000011111111 5
b00000000000000000000000011111111 S
0'
b00000000000000000000000011111111 6
0/
0>
b0000000001110010 ?
b0000000001110010 F
b00000000000000000000000011111111 "
b0000000001110010 #
b00000000000000000000000011111111 $
0W
b00000000000000000000000011111111 :
0A
0P
#1191
1%
b00000000000000000000000011111111 U
b0000000001110010 &
1'
1W
b00000000000000000000000011111111 =
1A
1P
1>
1/
#1196
b0000000001110011 ?
0%
b0000000001110011 F
b00000000000000000000000000000000 U
b0000000001110011 J
b0000000001110011 #
0'
0W
0A
0P
0>
0/
#1201
1%
b00000000000000000000000011111111 U
b0000000001110011 &
1'
1W
1A
1P
1>
1/
#1206
b0000000001110100 ?
0%
b0000000001110100 F
b00000000000000000000000000000000 U
b0000000001110100 J
b0000000001110100 #
0'
0W
0A
0P
0>
0/
#1211
1%
b00000000000000000000000011111111 U
b0000000001110100 &
1'
1W
1A
1P
1>
1/
#1216
0%
b0000000001110101 J
b00000000000000000000000000000000 5
b00000000000000000000000000000000 S
0'
b00000000000000000000000000000000 6
0/
0>
b0000000001110101 ?
b0000000001110101 F
b00000000000000000000000000000000 U
b00000000000000000000000000000000 "
b0000000001110101 #
b00000000000000000000000000000000 $
0W
b00000000000000000000000000000000 :
0A
0P
#1221
1%
b0000000001110101 &
1'
1W
b00000000000000000000000000000000 =
1A
1P
1>
1/
#1226
b0000000001110110 ?
0%
b0000000001110110 F
b0000000001110110 J
b0000000001110110 #
0'
0W
0A
0P
0>
0/
#1231
1%
b0000000001110110 &
1'
1W
1A
1P
1>
1/
#1236
b0000000001110111 ?
0%
b0000000001110111 F
b0000000001110111 J
b0000000001110111 #
0'
0W
0A
0P
0>
0/
#1241
1%
b0000000001110111 &
1'
1W
1A
1P
1>
1/
#1246
b0000000001111000 ?
0%
b0000000001111000 F
b0000000001111000 J
b0000000001111000 #
0'
0W
0A
0P
0>
0/
#1251
1%
b0000000001111000 &
1'
1W
1A
1P
1>
1/
#1256
b0000000001111001 ?
0%
b0000000001111001 F
b0000000001111001 J
b0000000001111001 #
0'
0W
0A
0P
0>
0/
#1261
1%
b0000000001111001 &
1'
1W
1A
1P
1>
1/
#1266
b0000000001111010 ?
0%
b0000000001111010 F
b0000000001111010 J
b0000000001111010 #
0'
0W
0A
0P
0>
0/
#1271
1%
b0000000001111010 &
1'
1W
1A
1P
1>
1/
